{
  "authors": [
    "Christopho"
  ],
  "categories": [
    "Solarus"
  ],
  "creation_date": "2012-04-27",
  "excerpt": "[b]10 ans déjà ![/b] Le 26 avril 2002, sortait notre première création, Zelda Mystery of....",
  "id": "2012-04-27-10-ans",
  "image_thumbnail": "../../../../../assets/blog/default_article_thumbnail.jpg",
  "page_override": {
    "meta_description": "",
    "meta_image": "../../../../../assets/images/meta_image_fallback.jpg",
    "meta_title": "10 ans !",
    "parent": "news",
    "slug": "news/2012-04-27-10-ans",
    "title": "10 ans !"
  },
  "page_slug": "news/2012-04-27-10-ans",
  "publish": true,
  "title": "10 ans !"
}