{
  "authors": [
    "Christopho"
  ],
  "categories": [
    "Solarus"
  ],
  "creation_date": "2012-04-08",
  "excerpt": "Vous les attendiez avec impatience : deux nouveaux épisodes de la soluce vidéo de [url=http://www.zelda-solarus.com/jeu-zsdx]Zelda Mystery of....",
  "id": "2012-04-08-la-soluce-continue",
  "image_thumbnail": "../../../../../assets/blog/default_article_thumbnail.jpg",
  "page_override": {
    "meta_description": "",
    "meta_image": "../../../../../assets/images/meta_image_fallback.jpg",
    "meta_title": "La soluce continue",
    "parent": "news",
    "slug": "news/2012-04-08-la-soluce-continue",
    "title": "La soluce continue"
  },
  "page_slug": "news/2012-04-08-la-soluce-continue",
  "publish": true,
  "title": "La soluce continue"
}