{
  "authors": [
    "Christopho"
  ],
  "categories": [
    "Solarus"
  ],
  "creation_date": "2001-09-19",
  "excerpt": "Vous le savez probablement déjà, Babeloueb a annoncé sa fermeture définitive pour la fin du mois !\n\nAlors apprenant cette nouvelle je n'ai pas....",
  "id": "2001-09-19-le-site-demenage",
  "image_thumbnail": "../../../../../assets/blog/default_article_thumbnail.jpg",
  "page_override": {
    "meta_description": "",
    "meta_image": "../../../../../assets/images/meta_image_fallback.jpg",
    "meta_title": "Le site déménage !",
    "parent": "news",
    "slug": "news/2001-09-19-le-site-demenage",
    "title": "Le site déménage !"
  },
  "page_slug": "news/2001-09-19-le-site-demenage",
  "publish": true,
  "title": "Le site déménage !"
}