{
  "authors": [
    "Christopho"
  ],
  "categories": [
    "Solarus"
  ],
  "creation_date": "2006-04-01",
  "excerpt": "Depuis environ une heure maintenant, Super Tomate est interrogée par le GLOUPS et d'autres organismes spécialisés dans les interrogatoires rapides....",
  "id": "2006-04-01-un-coup-monte-de-metallizer",
  "image_thumbnail": "../../../../../assets/blog/default_article_thumbnail.jpg",
  "page_override": {
    "meta_description": "",
    "meta_image": "../../../../../assets/images/meta_image_fallback.jpg",
    "meta_title": "Un coup monté de Metallizer ?",
    "parent": "news",
    "slug": "news/2006-04-01-un-coup-monte-de-metallizer",
    "title": "Un coup monté de Metallizer ?"
  },
  "page_slug": "news/2006-04-01-un-coup-monte-de-metallizer",
  "publish": true,
  "title": "Un coup monté de Metallizer ?"
}