{
  "authors": [
    "Christopho"
  ],
  "categories": [
    "Solarus"
  ],
  "creation_date": "2006-04-01",
  "excerpt": "J'ai réussi à poster ce message en trafiquant dans la base de données. Geomaster a en effet supprimé mon accès au site et m'a banni au forum, de....",
  "id": "2006-04-01-trahison",
  "image_thumbnail": "../../../../../assets/blog/default_article_thumbnail.jpg",
  "page_override": {
    "meta_description": "",
    "meta_image": "../../../../../assets/images/meta_image_fallback.jpg",
    "meta_title": "Trahison !",
    "parent": "news",
    "slug": "news/2006-04-01-trahison",
    "title": "Trahison !"
  },
  "page_slug": "news/2006-04-01-trahison",
  "publish": true,
  "title": "Trahison !"
}