{
  "authors": [
    "Christopho"
  ],
  "categories": [
    "Solarus"
  ],
  "creation_date": "2006-04-01",
  "excerpt": "La fête est terminée ! :mrgreen: J'espère que vous avez tous apprécié notre poisson d'avril, ou plutôt notre poisson d'avril géant....",
  "id": "2006-04-01-c-est-deja-fini",
  "image_thumbnail": "../../../../../assets/blog/default_article_thumbnail.jpg",
  "page_override": {
    "meta_description": "",
    "meta_image": "../../../../../assets/images/meta_image_fallback.jpg",
    "meta_title": "C'est déjà fini !",
    "parent": "news",
    "slug": "news/2006-04-01-c-est-deja-fini",
    "title": "C'est déjà fini !"
  },
  "page_slug": "news/2006-04-01-c-est-deja-fini",
  "publish": true,
  "title": "C'est déjà fini !"
}