{
  "authors": [
    "Christopho"
  ],
  "categories": [
    "Solarus"
  ],
  "creation_date": "2006-04-30",
  "excerpt": "Puisque l'actualité Zeldaesque est plutôt calme ces temps-ci, on s'est dit qu'il était temps de publier de nouveaux artworks. Il m'en reste....",
  "id": "2006-04-30-quelques-nouveaux-artworks-pour-mercuris-chest",
  "image_thumbnail": "../../../../../assets/blog/default_article_thumbnail.jpg",
  "page_override": {
    "meta_description": "",
    "meta_image": "../../../../../assets/images/meta_image_fallback.jpg",
    "meta_title": "Quelques nouveaux artworks pour Mercuris' Chest !",
    "parent": "news",
    "slug": "news/2006-04-30-quelques-nouveaux-artworks-pour-mercuris-chest",
    "title": "Quelques nouveaux artworks pour Mercuris' Chest !"
  },
  "page_slug": "news/2006-04-30-quelques-nouveaux-artworks-pour-mercuris-chest",
  "publish": true,
  "title": "Quelques nouveaux artworks pour Mercuris' Chest !"
}