{
  "authors": [
    "Christopho"
  ],
  "categories": [
    "Solarus"
  ],
  "creation_date": "2006-04-01",
  "excerpt": "Je vois que ce sournois de Christopho a réussi à donner signe de vie... Qu'à cela ne tienne, il ne risque plus de recommencer désormais ! En....",
  "id": "2006-04-01-le-monde-plongera-dans-le-sonysme",
  "image_thumbnail": "../../../../../assets/blog/default_article_thumbnail.jpg",
  "page_override": {
    "meta_description": "",
    "meta_image": "../../../../../assets/images/meta_image_fallback.jpg",
    "meta_title": "Le monde plongera dans le Sonysme !",
    "parent": "news",
    "slug": "news/2006-04-01-le-monde-plongera-dans-le-sonysme",
    "title": "Le monde plongera dans le Sonysme !"
  },
  "page_slug": "news/2006-04-01-le-monde-plongera-dans-le-sonysme",
  "publish": true,
  "title": "Le monde plongera dans le Sonysme !"
}