{
  "authors": [
    "Olivier Cléro"
  ],
  "categories": [
    "Website"
  ],
  "creation_date": "2020-02-09",
  "excerpt": "Le site propose désormais des solutions de jeux, et Mystery of Solarus DX est le premier servi.",
  "id": "article-2020-02-09-walkthroughs-on-the-website",
  "image_thumbnail": "2020-02-09-walkthroughs-on-the-website/cover.jpg",
  "page_override": {
    "meta_description": "Le site propose désormais des solutions de jeux, et Mystery of Solarus DX est le premier servi.",
    "meta_image": "2020-02-09-walkthroughs-on-the-website/cover.jpg",
    "meta_title": "Solutions de jeux sur le site",
    "parent": "news",
    "slug": "news/2020-02-09-walkthroughs-on-the-website",
    "title": "Solutions de jeux sur le site"
  },
  "page_slug": "news/2020-02-09-walkthroughs-on-the-website",
  "publish": true,
  "title": "Solutions de jeux sur le site"
}