{
  "authors": [
    "Christopho"
  ],
  "categories": [
    "Solarus"
  ],
  "creation_date": "2011-01-18",
  "excerpt": "Last week, I was thinking about the enemies system because one of the things I have to implement these days is the boss of the second dungeon. Then,....",
  "id": "2011-01-18-enemy-scripts-finished",
  "image_thumbnail": "../../../../../assets/blog/default_article_thumbnail.jpg",
  "page_override": {
    "meta_description": "",
    "meta_image": "../../../../../assets/images/meta_image_fallback.jpg",
    "meta_title": "Enemy scripts... finished!",
    "parent": "news",
    "slug": "news/2011-01-18-enemy-scripts-finished",
    "title": "Enemy scripts... finished!"
  },
  "page_slug": "news/2011-01-18-enemy-scripts-finished",
  "publish": true,
  "title": "Enemy scripts... finished!"
}