{
  "authors": [
    "Binbin"
  ],
  "categories": [
    "Solarus"
  ],
  "creation_date": "2018-02-25",
  "excerpt": "Cette semaine, pour le projet de remake de Link's Awakening, on vous présente l'unique sorcière de Cocolint. Pour ceux qui ne connaissent pas, il....",
  "id": "2018-02-25-la-sorciere",
  "image_thumbnail": "../../../../../assets/blog/default_article_thumbnail.jpg",
  "page_override": {
    "meta_description": "",
    "meta_image": "../../../../../assets/images/meta_image_fallback.jpg",
    "meta_title": "La sorcière",
    "parent": "news",
    "slug": "news/2018-02-25-la-sorciere",
    "title": "La sorcière"
  },
  "page_slug": "news/2018-02-25-la-sorciere",
  "publish": true,
  "title": "La sorcière"
}