{
  "authors": [
    "Olivier Cléro"
  ],
  "categories": [
    "Solarus"
  ],
  "creation_date": "2019-01-25",
  "excerpt": "A video advertisement made with (almost only) Solarus.",
  "id": "2019-01-25-video-ad-for-chase-bliss-audio",
  "image_thumbnail": "2019-01-25-video-ad-for-chase-bliss-audio/cover.jpg",
  "page_override": {
    "meta_description": "",
    "meta_image": "../../../../../assets/images/meta_image_fallback.jpg",
    "meta_title": "Video Ad for Chase Bliss Audio",
    "parent": "news",
    "slug": "news/2019-01-25-video-ad-for-chase-bliss-audio",
    "title": "Video Ad for Chase Bliss Audio"
  },
  "page_slug": "news/2019-01-25-video-ad-for-chase-bliss-audio",
  "publish": true,
  "title": "Video Ad for Chase Bliss Audio"
}