{
  "authors": [
    "Christopho"
  ],
  "categories": [
    "Solarus"
  ],
  "creation_date": "2002-05-09",
  "excerpt": "Nous avons remarqué que chez certaines personnes, les textes sont affichés avec des caractères bizarres, des N inversés...\nSi cela vous concerne,....",
  "id": "2002-05-09-polices-francaises",
  "image_thumbnail": "../../../../../assets/blog/default_article_thumbnail.jpg",
  "page_override": {
    "meta_description": "",
    "meta_image": "../../../../../assets/images/meta_image_fallback.jpg",
    "meta_title": "Polices françaises...",
    "parent": "news",
    "slug": "news/2002-05-09-polices-francaises",
    "title": "Polices françaises..."
  },
  "page_slug": "news/2002-05-09-polices-francaises",
  "publish": true,
  "title": "Polices françaises..."
}