{
  "authors": [
    "Christopho"
  ],
  "categories": [
    "Solarus"
  ],
  "creation_date": "2010-08-06",
  "excerpt": "The project is making good progress these days, though it was hard for me during the last few months to find much time to work on Solarus, for....",
  "id": "2010-08-06-quest-files-specification",
  "image_thumbnail": "../../../../../assets/blog/default_article_thumbnail.jpg",
  "page_override": {
    "meta_description": "",
    "meta_image": "../../../../../assets/images/meta_image_fallback.jpg",
    "meta_title": "Quest files specification",
    "parent": "news",
    "slug": "news/2010-08-06-quest-files-specification",
    "title": "Quest files specification"
  },
  "page_slug": "news/2010-08-06-quest-files-specification",
  "publish": true,
  "title": "Quest files specification"
}