{
  "excerpt": "How to open a door with a mechanism, an explosion or any interaction or condition with the hero.",
  "id": "book-chapter-solarus-video-tutorial-basics-doors",
  "index": 32,
  "origin_tree": "development/tutorials/solarus-video-tutorial",
  "page_override": {
    "meta_description": "How to open a door with a mechanism, an explosion or any interaction or condition with the hero.",
    "meta_image": "../../../../book/tutorial/solarus-video-tutorial/images/thumbnail.png",
    "meta_title": "Doors",
    "parent": "development/tutorials/solarus-video-tutorial",
    "slug": "development/tutorials/solarus-video-tutorial/doors",
    "title": "Doors"
  },
  "page_slug": "development/tutorials/solarus-video-tutorial/doors",
  "publish": true,
  "title": "Doors"
}
