{
  "authors": [
    "Christopho"
  ],
  "categories": [
    "Solarus"
  ],
  "creation_date": "2003-04-01",
  "excerpt": "Fidèle fan de notre création ZAP, vous attendiez probablement ce moment depuis longtemps, nous avons enfin décidé de vous annoncer officiellement....",
  "id": "2003-04-01-l-evenement-de-l-annee",
  "image_thumbnail": "../../../../../assets/blog/default_article_thumbnail.jpg",
  "page_override": {
    "meta_description": "",
    "meta_image": "../../../../../assets/images/meta_image_fallback.jpg",
    "meta_title": "L'événement de l'année",
    "parent": "news",
    "slug": "news/2003-04-01-l-evenement-de-l-annee",
    "title": "L'événement de l'année"
  },
  "page_slug": "news/2003-04-01-l-evenement-de-l-annee",
  "publish": true,
  "title": "L'événement de l'année"
}