{
  "authors": [
    "Christopho"
  ],
  "categories": [
    "Solarus"
  ],
  "creation_date": "2003-04-01",
  "excerpt": "Il y en a beaucoup qui se sont fait avoir ! Zelda : Advanced Project ne sortira pas le 30 septembre mais largement avant, rassurez-vous. Nous....",
  "id": "2003-04-01-poisson-d-avril",
  "image_thumbnail": "../../../../../assets/blog/default_article_thumbnail.jpg",
  "page_override": {
    "meta_description": "",
    "meta_image": "../../../../../assets/images/meta_image_fallback.jpg",
    "meta_title": "Poisson d'avril !",
    "parent": "news",
    "slug": "news/2003-04-01-poisson-d-avril",
    "title": "Poisson d'avril !"
  },
  "page_slug": "news/2003-04-01-poisson-d-avril",
  "publish": true,
  "title": "Poisson d'avril !"
}