{
  "authors": [
    "Christopho"
  ],
  "categories": [
    "Solarus"
  ],
  "creation_date": "2003-04-11",
  "excerpt": "Allez, on en parle un petit peu car vous allez croire qu'on a abandonné le développement ! Ça fait maintenant 3 semaines qu'on bosse exclusivement....",
  "id": "2003-04-11-des-nouvelles-de-zap",
  "image_thumbnail": "../../../../../assets/blog/default_article_thumbnail.jpg",
  "page_override": {
    "meta_description": "",
    "meta_image": "../../../../../assets/images/meta_image_fallback.jpg",
    "meta_title": "Des nouvelles de ZAP",
    "parent": "news",
    "slug": "news/2003-04-11-des-nouvelles-de-zap",
    "title": "Des nouvelles de ZAP"
  },
  "page_slug": "news/2003-04-11-des-nouvelles-de-zap",
  "publish": true,
  "title": "Des nouvelles de ZAP"
}