{
  "has_breadcrumb": true,
  "meta_description": "Les gens derrière le projet de moteur de jeu Solarus.",
  "meta_image": "../../../assets/images/meta_image_fallback.jpg",
  "meta_title": "Contributeurs",
  "parent": "about",
  "publish": true,
  "slug": "about/contributors",
  "title": "Contributeurs"
}