{
  "authors": [
    "Scott Mackensen", "Eric Mackensen"
  ],
  "downloads": [
    {
      "content": "downloads/any.md",
      "file": "https://gitlab.com/ShargonPendragon/visual-novel-system/-/archive/v0.2/visual-novel-system-v0.2.zip",
      "label": ".zip file",
      "platform": "any",
      "version": "0.2"
    }
  ],
  "excerpt": "A huge overhaul of the Solarus dialog system.",
  "id": "resource-pack-visual-novel-system",
  "image_thumbnail": "images/thumbnail.png",
  "licenses": [
    "MIT"
  ],
  "medias": [
    {
      "image": "medias/screen_1.png",
      "thumbnail": "medias/screen_1.png",
      "type": "image"
    },
    {
      "image": "medias/screen_2.png",
      "thumbnail": "medias/screen_2.png",
      "type": "image"
    },
    {
      "image": "medias/screen_3.png",
      "thumbnail": "medias/screen_3.png",
      "type": "image"
    },
    {
      "image": "medias/screen_4.png",
      "thumbnail": "medias/screen_4.png",
      "type": "image"
    }
  ],
  "page_override": {
    "meta_description": "A huge overhaul of the Solarus dialog system.",
    "meta_image": "../../../assets/images/meta_image_fallback.jpg",
    "meta_title": "Visual Novel System",
    "slug": "development/resource-packs/visual-novel-system",
    "title": "Visual Novel System"
  },
  "page_slug": "development/resource-packs/visual-novel-system",
  "publish": true,
  "release_date": "2020-12-04",
  "solarus_version": "1.6.x",
  "source_code": "https://gitlab.com/ShargonPendragon/visual-novel-system",
  "title": "Visual Novel System",
  "version": "0.2"
}
