{
  "authors": [
    "Christopho"
  ],
  "categories": [
    "Solarus"
  ],
  "creation_date": "2003-01-19",
  "excerpt": "Que ce soit par e-mail, sur le forum ou sur msn messenger, le constat est le même : on reçoit sans arrêt des messages de personnes bloquées au....",
  "id": "2003-01-19-suppression-de-la-soluce-de-zelda-solarus",
  "image_thumbnail": "../../../../../assets/blog/default_article_thumbnail.jpg",
  "page_override": {
    "meta_description": "",
    "meta_image": "../../../../../assets/images/meta_image_fallback.jpg",
    "meta_title": "Suppression de la soluce de Zelda Solarus",
    "parent": "news",
    "slug": "news/2003-01-19-suppression-de-la-soluce-de-zelda-solarus",
    "title": "Suppression de la soluce de Zelda Solarus"
  },
  "page_slug": "news/2003-01-19-suppression-de-la-soluce-de-zelda-solarus",
  "publish": true,
  "title": "Suppression de la soluce de Zelda Solarus"
}