{
  "authors": [
    "Christopho"
  ],
  "categories": [
    "Solarus"
  ],
  "creation_date": "2003-01-01",
  "excerpt": "Toute l'équipe de Zelda Solarus vous souhaite une excellente année 2003 ! Dans 4 heures pour les québecois... Nous vous souhaitons plein de....",
  "id": "2003-01-01-bonne-annee-a-tous",
  "image_thumbnail": "../../../../../assets/blog/default_article_thumbnail.jpg",
  "page_override": {
    "meta_description": "",
    "meta_image": "../../../../../assets/images/meta_image_fallback.jpg",
    "meta_title": "BONNE ANNEE A TOUS !",
    "parent": "news",
    "slug": "news/2003-01-01-bonne-annee-a-tous",
    "title": "BONNE ANNEE A TOUS !"
  },
  "page_slug": "news/2003-01-01-bonne-annee-a-tous",
  "publish": true,
  "title": "BONNE ANNEE A TOUS !"
}