{
  "authors": [
    "Christopho"
  ],
  "categories": [
    "Solarus"
  ],
  "creation_date": "2002-02-16",
  "excerpt": "Salut à tous ! L'ancien niveau 8 me plaisait pas du tout, on voyait rien, le chipset comportait plein d'erreur, c'était l'horreur quoi ! C'est....",
  "id": "2002-02-16-4-screenshots",
  "image_thumbnail": "../../../../../assets/blog/default_article_thumbnail.jpg",
  "page_override": {
    "meta_description": "",
    "meta_image": "../../../../../assets/images/meta_image_fallback.jpg",
    "meta_title": "4 screenshots !!!",
    "parent": "news",
    "slug": "news/2002-02-16-4-screenshots",
    "title": "4 screenshots !!!"
  },
  "page_slug": "news/2002-02-16-4-screenshots",
  "publish": true,
  "title": "4 screenshots !!!"
}