{
  "authors": [
    "Christopho"
  ],
  "categories": [
    "Solarus"
  ],
  "creation_date": "2006-07-10",
  "excerpt": "Comme vous le savez, nous sommes comme vous : nous n'aimons pas la pub sur Internet. Trop nombreux sont les sites qui vous martèlent de pub par tous....",
  "id": "2006-07-10-zelda-solarus-faites-un-don",
  "image_thumbnail": "../../../../../assets/blog/default_article_thumbnail.jpg",
  "page_override": {
    "meta_description": "",
    "meta_image": "../../../../../assets/images/meta_image_fallback.jpg",
    "meta_title": "Zelda Solarus : faites un don !",
    "parent": "news",
    "slug": "news/2006-07-10-zelda-solarus-faites-un-don",
    "title": "Zelda Solarus : faites un don !"
  },
  "page_slug": "news/2006-07-10-zelda-solarus-faites-un-don",
  "publish": true,
  "title": "Zelda Solarus : faites un don !"
}