{
  "authors": [
    "Christopho"
  ],
  "categories": [
    "Solarus"
  ],
  "creation_date": "2006-07-04",
  "excerpt": "Nous sommes le 4 juillet 2006. Cela fait aujourd'hui 5 ans que le site existe ! :o Pour fêter ça, je vous ai préparé un méga dossier qui....",
  "id": "2006-07-04-5-ans-deja",
  "image_thumbnail": "../../../../../assets/blog/default_article_thumbnail.jpg",
  "page_override": {
    "meta_description": "",
    "meta_image": "../../../../../assets/images/meta_image_fallback.jpg",
    "meta_title": "5 ans déjà !",
    "parent": "news",
    "slug": "news/2006-07-04-5-ans-deja",
    "title": "5 ans déjà !"
  },
  "page_slug": "news/2006-07-04-5-ans-deja",
  "publish": true,
  "title": "5 ans déjà !"
}