{
  "authors": [
    "Christopho"
  ],
  "categories": [
    "Solarus"
  ],
  "creation_date": "2008-10-31",
  "excerpt": "Jusqu'à présent, toutes les captures d'écran de Zelda Solarus DX étaient faites à l'intérieur d'une maison, pour la simple raison que le décor....",
  "id": "2008-10-31-link-sort-enfin-de-sa-maison",
  "image_thumbnail": "../../../../../assets/blog/default_article_thumbnail.jpg",
  "page_override": {
    "meta_description": "",
    "meta_image": "../../../../../assets/images/meta_image_fallback.jpg",
    "meta_title": "Link sort enfin de sa maison !",
    "parent": "news",
    "slug": "news/2008-10-31-link-sort-enfin-de-sa-maison",
    "title": "Link sort enfin de sa maison !"
  },
  "page_slug": "news/2008-10-31-link-sort-enfin-de-sa-maison",
  "publish": true,
  "title": "Link sort enfin de sa maison !"
}