{
  "authors": [
    "Olivier Cléro"
  ],
  "categories": [
    "Solarus"
  ],
  "creation_date": "2017-01-17",
  "excerpt": "We created an official Gitter chat for things about Solarus. For the moment, there is only one room, the default one. Gitter is a popular chat whose....",
  "id": "2017-01-17-solarus-official-gitter",
  "image_thumbnail": "../../../../../assets/blog/default_article_thumbnail.jpg",
  "page_override": {
    "meta_description": "",
    "meta_image": "../../../../../assets/images/meta_image_fallback.jpg",
    "meta_title": "Solarus official Gitter",
    "parent": "news",
    "slug": "news/2017-01-17-solarus-official-gitter",
    "title": "Solarus official Gitter"
  },
  "page_slug": "news/2017-01-17-solarus-official-gitter",
  "publish": true,
  "title": "Solarus official Gitter"
}