{
  "excerpt": "Useful tools for Solarus.",
  "id": "book-chapter-solarus-official-guide-tools",
  "index": 3,
  "origin_tree": "development/tutorials/solarus-official-guide",
  "page_override": {
    "meta_description": "Useful tools for Solarus.",
    "meta_image": "../../../book/tutorial/solarus-official-guide/images/thumbnail.png",
    "meta_title": "Tools",
    "parent": "development/tutorials/solarus-official-guide",
    "slug": "development/tutorials/solarus-official-guide/tools",
    "title": "Tools"
  },
  "page_slug": "development/tutorials/solarus-official-guide/tools",
  "publish": true,
  "title": "Tools"
}
