{
  "authors": [
    "Christopho"
  ],
  "categories": [
    "Solarus"
  ],
  "creation_date": "2002-11-17",
  "excerpt": "Vous connaissiez les initiales de ce titre depuis quelque temps, et aujourd'hui nous vous le dévoilons officiellement. Ne parlez plus de \"Zelda....",
  "id": "2002-11-17-zelda-advanced-project",
  "image_thumbnail": "../../../../../assets/blog/default_article_thumbnail.jpg",
  "page_override": {
    "meta_description": "",
    "meta_image": "../../../../../assets/images/meta_image_fallback.jpg",
    "meta_title": "Zelda : Advanced Project !",
    "parent": "news",
    "slug": "news/2002-11-17-zelda-advanced-project",
    "title": "Zelda : Advanced Project !"
  },
  "page_slug": "news/2002-11-17-zelda-advanced-project",
  "publish": true,
  "title": "Zelda : Advanced Project !"
}