{
  "authors": [
    "Christopho"
  ],
  "categories": [
    "Solarus"
  ],
  "creation_date": "2001-07-17",
  "excerpt": "Salut à tous ! Une petite mise à jour pour vous informer de l'avancement du jeu. Je sais que vous êtes impatients mais il va falloir encore....",
  "id": "2001-07-17-ca-avance",
  "image_thumbnail": "../../../../../assets/blog/default_article_thumbnail.jpg",
  "page_override": {
    "meta_description": "",
    "meta_image": "../../../../../assets/images/meta_image_fallback.jpg",
    "meta_title": "Ca avance !!!",
    "parent": "news",
    "slug": "news/2001-07-17-ca-avance",
    "title": "Ca avance !!!"
  },
  "page_slug": "news/2001-07-17-ca-avance",
  "publish": true,
  "title": "Ca avance !!!"
}