{
  "authors": [
    "Christopho"
  ],
  "categories": [
    "Solarus"
  ],
  "creation_date": "2009-08-31",
  "excerpt": "Bonjour à tous, J'espère que vous avez passé un bon été. Du côté de [url=http://www.zelda-solarus.com/jeu-zsdx]Zelda Solarus DX[/url] en tout....",
  "id": "2009-08-31-la-date",
  "image_thumbnail": "../../../../../assets/blog/default_article_thumbnail.jpg",
  "page_override": {
    "meta_description": "",
    "meta_image": "../../../../../assets/images/meta_image_fallback.jpg",
    "meta_title": "La date !",
    "parent": "news",
    "slug": "news/2009-08-31-la-date",
    "title": "La date !"
  },
  "page_slug": "news/2009-08-31-la-date",
  "publish": true,
  "title": "La date !"
}