{
  "excerpt": "How to create a sprite in the sprite editor.",
  "id": "book-chapter-solarus-video-tutorial-basics-create-a-sprite",
  "index": 16,
  "origin_tree": "development/tutorials/solarus-video-tutorial",
  "page_override": {
    "meta_description": "How to create a sprite in the sprite editor.",
    "meta_image": "../../../../book/tutorial/solarus-video-tutorial/images/thumbnail.png",
    "meta_title": "How to create a sprite",
    "parent": "development/tutorials/solarus-video-tutorial",
    "slug": "development/tutorials/solarus-video-tutorial/create-a-sprite",
    "title": "How to create a sprite"
  },
  "page_slug": "development/tutorials/solarus-video-tutorial/create-a-sprite",
  "publish": true,
  "title": "How to create a sprite"
}
