{
  "excerpt": "How to send the hero upstairs or downstairs with stairs and holes.",
  "id": "book-chapter-solarus-video-tutorial-basics-stairs-and-holes",
  "index": 12,
  "origin_tree": "development/tutorials/solarus-video-tutorial",
  "page_override": {
    "meta_description": "How to send the hero upstairs or downstairs with stairs and holes.",
    "meta_image": "../../../../book/tutorial/solarus-video-tutorial/images/thumbnail.png",
    "meta_title": "Stairs and holes",
    "parent": "development/tutorials/solarus-video-tutorial",
    "slug": "development/tutorials/solarus-video-tutorial/stairs-and-holes",
    "title": "Stairs and holes"
  },
  "page_slug": "development/tutorials/solarus-video-tutorial/stairs-and-holes",
  "publish": true,
  "title": "Stairs and holes"
}
