{
  "layout": "homepage",
  "meta_description": "Un moteur de jeu Action-RPG 2D libre et open-source",
  "meta_image": "../../../assets/images/meta_image_fallback.jpg",
  "meta_title": "Accueil",
  "publish": true,
  "slug": "home",
  "title": "Accueil"
}