{
  "has_breadcrumb": true,
  "meta_description": "Comment contribuer au projet de moteur de jeu Solarus.",
  "meta_image": "../../../assets/images/meta_image_fallback.jpg",
  "meta_title": "Comment contribuer",
  "parent": "development",
  "publish": true,
  "slug": "development/how-to-contribute",
  "title": "Comment contribuer"
}