{
  "authors": [
    "Christopho"
  ],
  "categories": [
    "Solarus"
  ],
  "creation_date": "2001-11-24",
  "excerpt": "Bienvenue sur Zelda Solarus Nouvelle formule !\nBeaucoup plus beau qu'avant et beaucoup plus rapide ! Ce nouveau site offrira un grand nombre de....",
  "id": "2001-11-24-on-change-tout",
  "image_thumbnail": "../../../../../assets/blog/default_article_thumbnail.jpg",
  "page_override": {
    "meta_description": "",
    "meta_image": "../../../../../assets/images/meta_image_fallback.jpg",
    "meta_title": "On change tout !",
    "parent": "news",
    "slug": "news/2001-11-24-on-change-tout",
    "title": "On change tout !"
  },
  "page_slug": "news/2001-11-24-on-change-tout",
  "publish": true,
  "title": "On change tout !"
}