{
  "authors": [
    "Christopho"
  ],
  "categories": [
    "Solarus"
  ],
  "creation_date": "2001-11-26",
  "excerpt": "Salut à tous !\n\nMalgré la métamorphose du site, le développement du jeu avance encore et toujours ! Il me reste encore une misérable dernière....",
  "id": "2001-11-26-les-news",
  "image_thumbnail": "../../../../../assets/blog/default_article_thumbnail.jpg",
  "page_override": {
    "meta_description": "",
    "meta_image": "../../../../../assets/images/meta_image_fallback.jpg",
    "meta_title": "Les news",
    "parent": "news",
    "slug": "news/2001-11-26-les-news",
    "title": "Les news"
  },
  "page_slug": "news/2001-11-26-les-news",
  "publish": true,
  "title": "Les news"
}