{
  "authors": [
    "Christopho"
  ],
  "categories": [
    "Solarus"
  ],
  "creation_date": "2001-11-14",
  "excerpt": "Salut à tous ! Le sixième donjon est bouclé depuis quelques jours déjà. C'est la première fois que ça va si vite ! Mais rassurez-vous : la....",
  "id": "2001-11-14-quoi-de-neuf",
  "image_thumbnail": "../../../../../assets/blog/default_article_thumbnail.jpg",
  "page_override": {
    "meta_description": "",
    "meta_image": "../../../../../assets/images/meta_image_fallback.jpg",
    "meta_title": "Quoi de neuf ?",
    "parent": "news",
    "slug": "news/2001-11-14-quoi-de-neuf",
    "title": "Quoi de neuf ?"
  },
  "page_slug": "news/2001-11-14-quoi-de-neuf",
  "publish": true,
  "title": "Quoi de neuf ?"
}