{
  "authors": [
    "Christopho"
  ],
  "categories": [
    "Solarus"
  ],
  "creation_date": "2001-11-09",
  "excerpt": "Salut à tous !\n\nComme promis voici les screenshots du sixième donjon ! Ce donjon est encore plus vaste, encore plus long et encore plus dur que les....",
  "id": "2001-11-09-cinq-nouveaux-screenshots",
  "image_thumbnail": "../../../../../assets/blog/default_article_thumbnail.jpg",
  "page_override": {
    "meta_description": "",
    "meta_image": "../../../../../assets/images/meta_image_fallback.jpg",
    "meta_title": "Cinq nouveaux screenshots !",
    "parent": "news",
    "slug": "news/2001-11-09-cinq-nouveaux-screenshots",
    "title": "Cinq nouveaux screenshots !"
  },
  "page_slug": "news/2001-11-09-cinq-nouveaux-screenshots",
  "publish": true,
  "title": "Cinq nouveaux screenshots !"
}