{
  "has_breadcrumb": true,
  "meta_description": "Blog de développement pour le projet de moteur de jeu Solarus.",
  "meta_image": "../../../assets/images/meta_image_fallback.jpg",
  "meta_title": "Actualités",
  "parent": "home",
  "publish": true,
  "slug": "news",
  "title": "Actualités"
}