{
  "authors": [
    "Olivier Cléro"
  ],
  "categories": [
    "Games"
  ],
  "creation_date": "2020-08-01",
  "excerpt": "We often get asked about making a commercial game with Solarus. Here is some clarification.",
  "id": "article-2020-08-01-clarification-about-quest-licensing",
  "image_thumbnail": "images/cover.jpg",
  "page_override": {
    "meta_description": "We often get asked about making a commercial game with Solarus. Here is some clarification.",
    "meta_image": "images/cover.jpg",
    "meta_title": "Clarification about Solarus quest licensing",
    "parent": "news",
    "slug": "news/2020-08-01-clarification-about-quest-licensing",
    "title": "Clarification about Solarus quest licensing"
  },
  "page_slug": "news/2020-08-01-clarification-about-quest-licensing",
  "publish": true,
  "title": "Clarification about Solarus quest licensing"
}