{
  "authors": [
    "Christopho"
  ],
  "categories": [
    "Solarus"
  ],
  "creation_date": "2009-03-12",
  "excerpt": "Le projet [url=http://www.zelda-solarus.com/jeu-zsdx]Zelda Solarus DX[/url] avance de plus en plus. Si vous vous souvenez de....",
  "id": "2009-03-12-la-maison-des-rubis",
  "image_thumbnail": "../../../../../assets/blog/default_article_thumbnail.jpg",
  "page_override": {
    "meta_description": "",
    "meta_image": "../../../../../assets/images/meta_image_fallback.jpg",
    "meta_title": "La maison des rubis",
    "parent": "news",
    "slug": "news/2009-03-12-la-maison-des-rubis",
    "title": "La maison des rubis"
  },
  "page_slug": "news/2009-03-12-la-maison-des-rubis",
  "publish": true,
  "title": "La maison des rubis"
}