{
  "authors": [
    "Auteurs multiples"
  ],
  "downloads": [
    {
      "content": "downloads/any.md",
      "file": "https://gitlab.com/Splyth/solarus-mit-starter-quest/-/archive/master/solarus-mit-starter-quest-master.zip",
      "label": ".zip file",
      "platform": "any",
      "version": "-"
    }
  ],
  "excerpt": "Un pack de ressources dans le domaine public pour créer un jeu propriétaire et commercial avec Solarus.",
  "id": "resource-pack-mit-starter-quest",
  "image_thumbnail": "images/thumbnail.png",
  "licenses": [
    "MIT", 
    "CC0"
  ],
  "medias": [
    {
      "image": "medias/screen_1.png",
      "thumbnail": "medias/screen_1.png",
      "type": "image"
    },
    {
      "image": "medias/screen_2.png",
      "thumbnail": "medias/screen_2.png",
      "type": "image"
    },
    {
      "image": "medias/screen_3.png",
      "thumbnail": "medias/screen_3.png",
      "type": "image"
    },
    {
      "image": "medias/screen_4.png",
      "thumbnail": "medias/screen_4.png",
      "type": "image"
    }
  ],
  "page_override": {
    "meta_description": "Un pack de ressources dans le domaine public pour créer un jeu propriétaire et commercial avec Solarus.",
    "meta_image": "../../../assets/images/meta_image_fallback.jpg",
    "meta_title": "MIT Starter Quest",
    "slug": "development/resource-packs/mit-starter-quest",
    "title": "MIT Starter Quest"
  },
  "page_slug": "development/resource-packs/mit-starter-quest",
  "publish": true,
  "release_date": "2020-07-14",
  "solarus_version": "1.6.x",
  "source_code": "https://gitlab.com/Splyth/solarus-mit-starter-quest",
  "title": "MIT Starter Quest",
  "version": "-"
}
