{
  "authors": [
    "Binbin"
  ],
  "categories": [
    "Solarus"
  ],
  "creation_date": "2018-01-15",
  "excerpt": "Comme vous le savez, nous travaillons actuellement sur un projet de remake de Link's Awakening nommé A Link to the Dream. Ce projet, qui est....",
  "id": "2018-01-15-la-boutique-du-village-des-mouettes",
  "image_thumbnail": "../../../../../assets/blog/default_article_thumbnail.jpg",
  "page_override": {
    "meta_description": "",
    "meta_image": "../../../../../assets/images/meta_image_fallback.jpg",
    "meta_title": "La boutique du village des Mouettes",
    "parent": "news",
    "slug": "news/2018-01-15-la-boutique-du-village-des-mouettes",
    "title": "La boutique du village des Mouettes"
  },
  "page_slug": "news/2018-01-15-la-boutique-du-village-des-mouettes",
  "publish": true,
  "title": "La boutique du village des Mouettes"
}