{
  "authors": [
    "Christopho"
  ],
  "categories": [
    "Solarus"
  ],
  "creation_date": "2017-03-13",
  "excerpt": "Ceux qui ont joué à la démo de Zelda Mercuris' Chest reconnaùtront sans doute les lieux !  Rappelons que le Temple du Rail, donjon qui....",
  "id": "2017-03-13-le-temple-dans-la-mine",
  "image_thumbnail": "../../../../../assets/blog/default_article_thumbnail.jpg",
  "page_override": {
    "meta_description": "",
    "meta_image": "../../../../../assets/images/meta_image_fallback.jpg",
    "meta_title": "Le temple dans la mine",
    "parent": "news",
    "slug": "news/2017-03-13-le-temple-dans-la-mine",
    "title": "Le temple dans la mine"
  },
  "page_slug": "news/2017-03-13-le-temple-dans-la-mine",
  "publish": true,
  "title": "Le temple dans la mine"
}