{
  "authors": [
    "Christopho"
  ],
  "categories": [
    "Solarus"
  ],
  "creation_date": "2005-04-26",
  "excerpt": "Nous sommes encore le 26 avril, et comme promis voici la fameuse démo tant attendue ! Il s'agit d'une version bêta parce que nous n'avons pas....",
  "id": "2005-04-26-zelda-mercuris-chest-demo-2-0-beta",
  "image_thumbnail": "../../../../../assets/blog/default_article_thumbnail.jpg",
  "page_override": {
    "meta_description": "",
    "meta_image": "../../../../../assets/images/meta_image_fallback.jpg",
    "meta_title": "Zelda : Mercuris' Chest démo 2.0 bêta !",
    "parent": "news",
    "slug": "news/2005-04-26-zelda-mercuris-chest-demo-2-0-beta",
    "title": "Zelda : Mercuris' Chest démo 2.0 bêta !"
  },
  "page_slug": "news/2005-04-26-zelda-mercuris-chest-demo-2-0-beta",
  "publish": true,
  "title": "Zelda : Mercuris' Chest démo 2.0 bêta !"
}