{
  "authors": [
    "Christopho"
  ],
  "categories": [
    "Solarus"
  ],
  "creation_date": "2005-02-22",
  "excerpt": "Nous vous le promettions depuis longtemps, et il est enfin là ! Admirez le premier artwork de Link pour Zelda M'C, dessiné par Neovyze....",
  "id": "2005-02-22-zelda-m-c-un-artwork-de-link",
  "image_thumbnail": "../../../../../assets/blog/default_article_thumbnail.jpg",
  "page_override": {
    "meta_description": "",
    "meta_image": "../../../../../assets/images/meta_image_fallback.jpg",
    "meta_title": "Zelda M'C : un artwork de Link !",
    "parent": "news",
    "slug": "news/2005-02-22-zelda-m-c-un-artwork-de-link",
    "title": "Zelda M'C : un artwork de Link !"
  },
  "page_slug": "news/2005-02-22-zelda-m-c-un-artwork-de-link",
  "publish": true,
  "title": "Zelda M'C : un artwork de Link !"
}