{
  "excerpt": "Chapter 14 of the walkthrough for The Legend of Zelda: Mystery of Solarus DX.",
  "id": "book-chapter-the-legend-of-zelda-mystery-of-solarus-dx-walkthrough-14",
  "index": 14,
  "origin_tree": "games/the-legend-of-zelda-mystery-of-solarus-dx/walkthrough",
  "page_override": {
    "meta_description": "Chapter 14 of the walkthrough for The Legend of Zelda: Mystery of Solarus DX.",
    "meta_image": "../../../assets/images/meta_image_fallback.jpg",
    "meta_title": "Skyward Tower",
    "parent": "games/the-legend-of-zelda-mystery-of-solarus-dx/walkthrough",
    "slug": "games/the-legend-of-zelda-mystery-of-solarus-dx/walkthrough/14-skyward-tower",
    "title": "Skyward Tower"
  },
  "page_slug": "games/the-legend-of-zelda-mystery-of-solarus-dx/walkthrough/14-skyward-tower",
  "publish": true,
  "title": "Skyward Tower"
}
