{
  "authors": [
    "Christopho"
  ],
  "categories": [
    "Solarus"
  ],
  "creation_date": "2013-05-12",
  "excerpt": "&nbsp;\r\n\r\nAn update of Solarus 1.0 is available!\r\n\r\nThis update fixes a bunch of bugs of previous versions (some of them were very old!), and....",
  "id": "2013-05-12-solarus-1-0-1-released",
  "image_thumbnail": "../../../../../assets/blog/default_article_thumbnail.jpg",
  "page_override": {
    "meta_description": "",
    "meta_image": "../../../../../assets/images/meta_image_fallback.jpg",
    "meta_title": "Solarus 1.0.1 released",
    "parent": "news",
    "slug": "news/2013-05-12-solarus-1-0-1-released",
    "title": "Solarus 1.0.1 released"
  },
  "page_slug": "news/2013-05-12-solarus-1-0-1-released",
  "publish": true,
  "title": "Solarus 1.0.1 released"
}