{
  "authors": [
    "Diarandor"
  ],
  "categories": [
    "Solarus"
  ],
  "creation_date": "2018-04-15",
  "excerpt": "Ahoy there! Here you have our 6th screenshot of the project Children of Solarus, which shows part of the castle map. From now on, we will post only 1....",
  "id": "2018-04-15-children-of-solarus-6th-screenshot",
  "image_thumbnail": "../../../../../assets/blog/default_article_thumbnail.jpg",
  "page_override": {
    "meta_description": "",
    "meta_image": "../../../../../assets/images/meta_image_fallback.jpg",
    "meta_title": "Children of Solarus (6th screenshot)",
    "parent": "news",
    "slug": "news/2018-04-15-children-of-solarus-6th-screenshot",
    "title": "Children of Solarus (6th screenshot)"
  },
  "page_slug": "news/2018-04-15-children-of-solarus-6th-screenshot",
  "publish": true,
  "title": "Children of Solarus (6th screenshot)"
}