{
  "authors": [
    "Olivier Cléro"
  ],
  "categories": [
    "Solarus"
  ],
  "creation_date": "2018-04-01",
  "excerpt": "Who said it was too late? It's never too late!\r\n\r\n[embed]https://www.youtube.com/watch?v=M2tAk5hRMHk[/embed]\r\n\r\nExactly one year after the original....",
  "id": "2018-04-01-english-release-for-zelda-xd2-mercuris-chess",
  "image_thumbnail": "../../../../../assets/blog/default_article_thumbnail.jpg",
  "page_override": {
    "meta_description": "",
    "meta_image": "../../../../../assets/images/meta_image_fallback.jpg",
    "meta_title": "English release for Zelda XD2: Mercuris Chess",
    "parent": "news",
    "slug": "news/2018-04-01-english-release-for-zelda-xd2-mercuris-chess",
    "title": "English release for Zelda XD2: Mercuris Chess"
  },
  "page_slug": "news/2018-04-01-english-release-for-zelda-xd2-mercuris-chess",
  "publish": true,
  "title": "English release for Zelda XD2: Mercuris Chess"
}