{
  "excerpt": "Les timers vous permettent d'éxécuter une fonction après un certain délai.",
  "id": "book-chapter-solarus-video-tutorial-basics-timers",
  "index": 25,
  "origin_tree": "development/tutorials/solarus-video-tutorial",
  "page_override": {
    "meta_description": "Les timers vous permettent d'éxécuter une fonction après un certain délai.",
    "meta_image": "../../../assets/images/meta_image_fallback.jpg",
    "meta_title": "Les timers",
    "parent": "development/tutorials/solarus-video-tutorial",
    "slug": "development/tutorials/solarus-video-tutorial/timers",
    "title": "Les timers"
  },
  "page_slug": "development/tutorials/solarus-video-tutorial/timers",
  "publish": true,
  "title": "Les timers"
}
