{
  "authors": [
    "Christopho"
  ],
  "categories": [
    "Solarus"
  ],
  "creation_date": "2012-02-12",
  "excerpt": "[b]Mise à jour : [/b] une version 1.4.1 est disponible, elle corrige un [b]bug critique de la version 1.4[/b] qui nous avait échappé et qui....",
  "id": "2012-02-12-zelda-solarus-dx-version-1-4",
  "image_thumbnail": "../../../../../assets/blog/default_article_thumbnail.jpg",
  "page_override": {
    "meta_description": "",
    "meta_image": "../../../../../assets/images/meta_image_fallback.jpg",
    "meta_title": "Zelda Solarus DX version 1.4",
    "parent": "news",
    "slug": "news/2012-02-12-zelda-solarus-dx-version-1-4",
    "title": "Zelda Solarus DX version 1.4"
  },
  "page_slug": "news/2012-02-12-zelda-solarus-dx-version-1-4",
  "publish": true,
  "title": "Zelda Solarus DX version 1.4"
}