{
  "authors": [
    "Christopho"
  ],
  "categories": [
    "Solarus"
  ],
  "creation_date": "2005-11-20",
  "excerpt": "Le développement de notre prochaine création Zelda : Mercuris' Chest n'avance pas très vite ces temps-ci à cause de nos emplois du temps....",
  "id": "2005-11-20-zelda-m-c-le-scenario-avance",
  "image_thumbnail": "../../../../../assets/blog/default_article_thumbnail.jpg",
  "page_override": {
    "meta_description": "",
    "meta_image": "../../../../../assets/images/meta_image_fallback.jpg",
    "meta_title": "Zelda M'C : le scénario avance !",
    "parent": "news",
    "slug": "news/2005-11-20-zelda-m-c-le-scenario-avance",
    "title": "Zelda M'C : le scénario avance !"
  },
  "page_slug": "news/2005-11-20-zelda-m-c-le-scenario-avance",
  "publish": true,
  "title": "Zelda M'C : le scénario avance !"
}