{
  "has_breadcrumb": true,
  "meta_description": "Development HUB page for the Solarus game engine project.",
  "meta_image": "../../../assets/images/meta_image_fallback.jpg",
  "meta_title": "Development",
  "parent": "home",
  "publish": true,
  "slug": "development",
  "title": "Development"
}