{
  "authors": [
    "Christopho"
  ],
  "categories": [
    "Solarus"
  ],
  "creation_date": "2010-09-22",
  "excerpt": "I have just switched the source code from Subversion to Git. The code can now be accessed on github, which provides a nicer interface for the history....",
  "id": "2010-09-22-solarus-moves-to-git-and-github",
  "image_thumbnail": "../../../../../assets/blog/default_article_thumbnail.jpg",
  "page_override": {
    "meta_description": "",
    "meta_image": "../../../../../assets/images/meta_image_fallback.jpg",
    "meta_title": "Solarus moves to Git and GitHub",
    "parent": "news",
    "slug": "news/2010-09-22-solarus-moves-to-git-and-github",
    "title": "Solarus moves to Git and GitHub"
  },
  "page_slug": "news/2010-09-22-solarus-moves-to-git-and-github",
  "publish": true,
  "title": "Solarus moves to Git and GitHub"
}