{
  "excerpt": "Présentation de l'éditeur de maps, comment ajouter et modifier des tiles et les différents raccourcis pour travailler efficacement.",
  "id": "book-chapter-solarus-video-tutorial-basics-map-editor",
  "index": 3,
  "origin_tree": "development/tutorials/solarus-video-tutorial",
  "page_override": {
    "meta_description": "Présentation de l'éditeur de maps, comment ajouter et modifier des tiles et les différents raccourcis pour travailler efficacement.",
    "meta_image": "../../../../book/tutorial/solarus-video-tutorial/images/thumbnail.png",
    "meta_title": "L'éditeur de maps",
    "parent": "development/tutorials/solarus-video-tutorial",
    "slug": "development/tutorials/solarus-video-tutorial/map-editor",
    "title": "L'éditeur de maps"
  },
  "page_slug": "development/tutorials/solarus-video-tutorial/map-editor",
  "publish": true,
  "title": "L'éditeur de maps"
}
