{
  "authors": [
    "Diarandor"
  ],
  "categories": [
    "Solarus"
  ],
  "creation_date": "2018-02-11",
  "excerpt": "Greetings, fellows! Today we have a special screenshot which shows a sample map made with our new inner house tileset. Similar house maps will appear....",
  "id": "2018-02-11-special-screenshot-sample-map-of-house-tileset",
  "image_thumbnail": "../../../../../assets/blog/default_article_thumbnail.jpg",
  "page_override": {
    "meta_description": "",
    "meta_image": "../../../../../assets/images/meta_image_fallback.jpg",
    "meta_title": "Special screenshot: sample map of house tileset",
    "parent": "news",
    "slug": "news/2018-02-11-special-screenshot-sample-map-of-house-tileset",
    "title": "Special screenshot: sample map of house tileset"
  },
  "page_slug": "news/2018-02-11-special-screenshot-sample-map-of-house-tileset",
  "publish": true,
  "title": "Special screenshot: sample map of house tileset"
}