{
  "authors": [
    "Diarandor"
  ],
  "categories": [
    "Solarus"
  ],
  "creation_date": "2018-02-17",
  "excerpt": "Ahoy there! Today, our new screenshot of the project Children of Solarus shows a delightful house, and a very suspicious clucko wandering around (who....",
  "id": "2018-02-17-children-of-solarus-3rd-fortnightly-screenshot",
  "image_thumbnail": "../../../../../assets/blog/default_article_thumbnail.jpg",
  "page_override": {
    "meta_description": "",
    "meta_image": "../../../../../assets/images/meta_image_fallback.jpg",
    "meta_title": "Children of Solarus (3rd fortnightly screenshot)",
    "parent": "news",
    "slug": "news/2018-02-17-children-of-solarus-3rd-fortnightly-screenshot",
    "title": "Children of Solarus (3rd fortnightly screenshot)"
  },
  "page_slug": "news/2018-02-17-children-of-solarus-3rd-fortnightly-screenshot",
  "publish": true,
  "title": "Children of Solarus (3rd fortnightly screenshot)"
}