{
  "excerpt": "How to create a platform with the hero walking above or under it, thanks to the layers system.",
  "id": "book-chapter-solarus-video-tutorial-basics-platforms",
  "index": 22,
  "origin_tree": "development/tutorials/solarus-video-tutorial",
  "page_override": {
    "meta_description": "How to create a platform with the hero walking above or under it, thanks to the layers system.",
    "meta_image": "../../../../book/tutorial/solarus-video-tutorial/images/thumbnail.png",
    "meta_title": "Platforms",
    "parent": "development/tutorials/solarus-video-tutorial",
    "slug": "development/tutorials/solarus-video-tutorial/platforms",
    "title": "Platforms"
  },
  "page_slug": "development/tutorials/solarus-video-tutorial/platforms",
  "publish": true,
  "title": "Platforms"
}
