{
  "authors": [
    "Binbin"
  ],
  "categories": [
    "Solarus"
  ],
  "creation_date": "2018-03-04",
  "excerpt": "Suite aux différents remarques sur la hutte de la sorcière (cf news précédente), nous avons décidé de la modifier au niveau des pots. A....",
  "id": "2018-03-04-la-sorciere-suite",
  "image_thumbnail": "../../../../../assets/blog/default_article_thumbnail.jpg",
  "page_override": {
    "meta_description": "",
    "meta_image": "../../../../../assets/images/meta_image_fallback.jpg",
    "meta_title": "La sorcière (suite)",
    "parent": "news",
    "slug": "news/2018-03-04-la-sorciere-suite",
    "title": "La sorcière (suite)"
  },
  "page_slug": "news/2018-03-04-la-sorciere-suite",
  "publish": true,
  "title": "La sorcière (suite)"
}