{
  "authors": [
    "Olivier Cléro"
  ],
  "categories": [
    "Solarus"
  ],
  "creation_date": "2015-11-16",
  "excerpt": "\r\n\r\nChristopho and Mymy have begun to work on Oni Link Begins, the sequel to Return of the Hylian. This is also an original game by Vincent Jouillat,....",
  "id": "2015-11-16-currently-in-development-oni-link-begins-remake",
  "image_thumbnail": "../../../../../assets/blog/default_article_thumbnail.jpg",
  "page_override": {
    "meta_description": "",
    "meta_image": "../../../../../assets/images/meta_image_fallback.jpg",
    "meta_title": "Currently in development : Oni Link Begins remake",
    "parent": "news",
    "slug": "news/2015-11-16-currently-in-development-oni-link-begins-remake",
    "title": "Currently in development : Oni Link Begins remake"
  },
  "page_slug": "news/2015-11-16-currently-in-development-oni-link-begins-remake",
  "publish": true,
  "title": "Currently in development : Oni Link Begins remake"
}