{
  "authors": [
    "Christopho"
  ],
  "categories": [
    "Solarus"
  ],
  "creation_date": "2001-08-20",
  "excerpt": "Salut à tous !\n\nAprès 10 jours de vacances bien méritées, je suis de retour ! Fin des vacances = retour des mises à jour... Vous allez vite le....",
  "id": "2001-08-20-fin-des-vacances",
  "image_thumbnail": "../../../../../assets/blog/default_article_thumbnail.jpg",
  "page_override": {
    "meta_description": "",
    "meta_image": "../../../../../assets/images/meta_image_fallback.jpg",
    "meta_title": "Fin des vacances !",
    "parent": "news",
    "slug": "news/2001-08-20-fin-des-vacances",
    "title": "Fin des vacances !"
  },
  "page_slug": "news/2001-08-20-fin-des-vacances",
  "publish": true,
  "title": "Fin des vacances !"
}