{
  "authors": [
    "Christopho"
  ],
  "categories": [
    "Solarus"
  ],
  "creation_date": "2001-08-03",
  "excerpt": "Salut à tous !\n\nAlors quoi de neuf dans le développement du jeu ? Commençons par une mauvaise nouvelle : Thomas vient de partir en vacances et je....",
  "id": "2001-08-03-la-carte-du-monde",
  "image_thumbnail": "../../../../../assets/blog/default_article_thumbnail.jpg",
  "page_override": {
    "meta_description": "",
    "meta_image": "../../../../../assets/images/meta_image_fallback.jpg",
    "meta_title": "La Carte du Monde",
    "parent": "news",
    "slug": "news/2001-08-03-la-carte-du-monde",
    "title": "La Carte du Monde"
  },
  "page_slug": "news/2001-08-03-la-carte-du-monde",
  "publish": true,
  "title": "La Carte du Monde"
}