{
  "authors": [
    "Christopho"
  ],
  "categories": [
    "Solarus"
  ],
  "creation_date": "2011-12-16",
  "excerpt": "Bonjour à tous, Toute l'équipe est fière de vous annoncer la sortie de Zelda : Mystery of Solarus DX, notre nouvelle création !....",
  "id": "2011-12-16-zelda-mystery-of-solarus-dx-disponible-en-version-complete",
  "image_thumbnail": "../../../../../assets/blog/default_article_thumbnail.jpg",
  "page_override": {
    "meta_description": "",
    "meta_image": "../../../../../assets/images/meta_image_fallback.jpg",
    "meta_title": "Zelda Mystery of Solarus DX disponible en version complète !",
    "parent": "news",
    "slug": "news/2011-12-16-zelda-mystery-of-solarus-dx-disponible-en-version-complete",
    "title": "Zelda Mystery of Solarus DX disponible en version complète !"
  },
  "page_slug": "news/2011-12-16-zelda-mystery-of-solarus-dx-disponible-en-version-complete",
  "publish": true,
  "title": "Zelda Mystery of Solarus DX disponible en version complète !"
}