{
  "authors": [
    "Christopho"
  ],
  "categories": [
    "Solarus"
  ],
  "creation_date": "2014-05-07",
  "excerpt": "After six months of development, we are proud to announce the release of the Solarus 1.2!Solarus now uses SDL2. Graphics are GPU-accelerated if....",
  "id": "2014-05-07-solarus-1-2-is-out",
  "image_thumbnail": "../../../../../assets/blog/default_article_thumbnail.jpg",
  "page_override": {
    "meta_description": "",
    "meta_image": "../../../../../assets/images/meta_image_fallback.jpg",
    "meta_title": "Solarus 1.2 is out!",
    "parent": "news",
    "slug": "news/2014-05-07-solarus-1-2-is-out",
    "title": "Solarus 1.2 is out!"
  },
  "page_slug": "news/2014-05-07-solarus-1-2-is-out",
  "publish": true,
  "title": "Solarus 1.2 is out!"
}