{
  "excerpt": "Comment créer un tileset à partir de captures d'écran d'un jeu existant.",
  "id": "book-chapter-solarus-video-tutorial-basics-create-a-tileset",
  "index": 14,
  "origin_tree": "development/tutorials/solarus-video-tutorial",
  "page_override": {
    "meta_description": "Comment créer un tileset à partir de captures d'écran d'un jeu existant.",
    "meta_image": "../../../../book/tutorial/solarus-video-tutorial/images/thumbnail.png",
    "meta_title": "Comment créer un tileset",
    "parent": "development/tutorials/solarus-video-tutorial",
    "slug": "development/tutorials/solarus-video-tutorial/create-a-tileset",
    "title": "Comment créer un tileset"
  },
  "page_slug": "development/tutorials/solarus-video-tutorial/create-a-tileset",
  "publish": true,
  "title": "Comment créer un tileset"
}
