{
  "excerpt": "Comment utiliser les téléporteurs pour envoyer le héros vers un autre point d'une autre map ou de la même map.",
  "id": "book-chapter-solarus-video-tutorial-basics-teletransporters",
  "index": 10,
  "origin_tree": "development/tutorials/solarus-video-tutorial",
  "page_override": {
    "meta_description": "Comment utiliser les téléporteurs pour envoyer le héros vers un autre point d'une autre map ou de la même map.",
    "meta_image": "../../../../book/tutorial/solarus-video-tutorial/images/thumbnail.png",
    "meta_title": "Les téléporteurs",
    "parent": "development/tutorials/solarus-video-tutorial",
    "slug": "development/tutorials/solarus-video-tutorial/teletransporters",
    "title": "Les téléporteurs"
  },
  "page_slug": "development/tutorials/solarus-video-tutorial/teletransporters",
  "publish": true,
  "title": "Les téléporteurs"
}
