{
  "excerpt": "Build a quest package that you can distribute to players and publish on the website.",
  "id": "book-chapter-solarus-official-guide-basics-building-quest-package",
  "index": 4,
  "origin_tree": "development/tutorials/solarus-official-guide",
  "page_override": {
    "meta_description": "Build a quest package that you can distribute to players and publish on the website.",
    "meta_image": "../../../../book/tutorial/solarus-official-guide/images/thumbnail.png",
    "meta_title": "Building a quest package",
    "parent": "development/tutorials/solarus-official-guide/basics",
    "slug": "development/tutorials/solarus-official-guide/basics/building-quest-package",
    "title": "Building a quest package"
  },
  "page_slug": "development/tutorials/solarus-official-guide/basics/building-quest-package",
  "publish": true,
  "title": "Building a quest package"
}
