{
  "excerpt": "Le script de la map permet de programer le comportement de ses entités : ouvrir une porte, faire apparaître un coffre, etc.",
  "id": "book-chapter-solarus-video-tutorial-basics-map-scripts",
  "index": 15,
  "origin_tree": "development/tutorials/solarus-video-tutorial",
  "page_override": {
    "meta_description": "Le script de la map permet de programer le comportement de ses entités : ouvrir une porte, faire apparaître un coffre, etc.",
    "meta_image": "../../../../book/tutorial/solarus-video-tutorial/images/thumbnail.png",
    "meta_title": "Les scripts de map",
    "parent": "development/tutorials/solarus-video-tutorial",
    "slug": "development/tutorials/solarus-video-tutorial/map-scripts",
    "title": "Les scripts de map"
  },
  "page_slug": "development/tutorials/solarus-video-tutorial/map-scripts",
  "publish": true,
  "title": "Les scripts de map"
}
