{
  "excerpt": "Timers allow you to execute a function after a delay.",
  "id": "book-chapter-solarus-video-tutorial-basics-timers",
  "index": 25,
  "origin_tree": "development/tutorials/solarus-video-tutorial",
  "page_override": {
    "meta_description": "Timers allow you to execute a function after a delay.",
    "meta_image": "../../../../book/tutorial/solarus-video-tutorial/images/thumbnail.png",
    "meta_title": "Timers",
    "parent": "development/tutorials/solarus-video-tutorial",
    "slug": "development/tutorials/solarus-video-tutorial/timers",
    "title": "Timers"
  },
  "page_slug": "development/tutorials/solarus-video-tutorial/timers",
  "publish": true,
  "title": "Timers"
}
