{
  "authors": [
    "Christopho"
  ],
  "categories": [
    "Solarus"
  ],
  "creation_date": "2009-04-26",
  "excerpt": "Le 26 avril 2002, il y a 7 ans, c'était à peu près à cette heure ci que sortait, après un an et demi d'attente, notre première création,....",
  "id": "2009-04-26-zelda-solarus-7-ans-apres",
  "image_thumbnail": "../../../../../assets/blog/default_article_thumbnail.jpg",
  "page_override": {
    "meta_description": "",
    "meta_image": "../../../../../assets/images/meta_image_fallback.jpg",
    "meta_title": "Zelda Solarus, 7 ans après",
    "parent": "news",
    "slug": "news/2009-04-26-zelda-solarus-7-ans-apres",
    "title": "Zelda Solarus, 7 ans après"
  },
  "page_slug": "news/2009-04-26-zelda-solarus-7-ans-apres",
  "publish": true,
  "title": "Zelda Solarus, 7 ans après"
}