{
  "authors": [
    "Christopho"
  ],
  "categories": [
    "Solarus"
  ],
  "creation_date": "2007-04-01",
  "excerpt": "Après lecture de certains posts sur le topic concernant la nouvelle d'un éventuel nouveau Zelda en préparation sur Wii, il m'est apparu....",
  "id": "2007-04-01-correction-d-une-erreur-au-sujet-d-uneventuel-zelda-sur-wii",
  "image_thumbnail": "../../../../../assets/blog/default_article_thumbnail.jpg",
  "page_override": {
    "meta_description": "",
    "meta_image": "../../../../../assets/images/meta_image_fallback.jpg",
    "meta_title": "Correction d'une erreur au sujet d'un éventuel Zelda sur Wii",
    "parent": "news",
    "slug": "news/2007-04-01-correction-d-une-erreur-au-sujet-d-uneventuel-zelda-sur-wii",
    "title": "Correction d'une erreur au sujet d'un éventuel Zelda sur Wii"
  },
  "page_slug": "news/2007-04-01-correction-d-une-erreur-au-sujet-d-uneventuel-zelda-sur-wii",
  "publish": true,
  "title": "Correction d'une erreur au sujet d'un éventuel Zelda sur Wii"
}