{
  "authors": [
    "Christopho"
  ],
  "categories": [
    "Solarus"
  ],
  "creation_date": "2007-04-01",
  "excerpt": "Le recrutement de Marco n'était que la première étape d'un processus destiné à redonner vie au site et au forum. D'autres mesures vont être....",
  "id": "2007-04-01-on-change-tout",
  "image_thumbnail": "../../../../../assets/blog/default_article_thumbnail.jpg",
  "page_override": {
    "meta_description": "",
    "meta_image": "../../../../../assets/images/meta_image_fallback.jpg",
    "meta_title": "On change tout !",
    "parent": "news",
    "slug": "news/2007-04-01-on-change-tout",
    "title": "On change tout !"
  },
  "page_slug": "news/2007-04-01-on-change-tout",
  "publish": true,
  "title": "On change tout !"
}