{
  "authors": [
    "Christopho"
  ],
  "categories": [
    "Solarus"
  ],
  "creation_date": "2007-04-01",
  "excerpt": "Il me reste peu de temps avant que Christopho me bannisse. J'écris cette news rapidement afin de vous communiquer une décision prise par le CAM....",
  "id": "2007-04-01-delocalisation-de-solarus",
  "image_thumbnail": "../../../../../assets/blog/default_article_thumbnail.jpg",
  "page_override": {
    "meta_description": "",
    "meta_image": "../../../../../assets/images/meta_image_fallback.jpg",
    "meta_title": "Délocalisation de solarus",
    "parent": "news",
    "slug": "news/2007-04-01-delocalisation-de-solarus",
    "title": "Délocalisation de solarus"
  },
  "page_slug": "news/2007-04-01-delocalisation-de-solarus",
  "publish": true,
  "title": "Délocalisation de solarus"
}