{
  "authors": [
    "Christopho"
  ],
  "categories": [
    "Solarus"
  ],
  "creation_date": "2007-04-01",
  "excerpt": "Bonjour à tous :lol: Comme vous avez dû le remarquer, les mises à jour se font de moins en moins fréquentes ces derniers temps. En effet,....",
  "id": "2007-04-01-lequipe-s-agrandit-gr-acirc-cea-marco",
  "image_thumbnail": "../../../../../assets/blog/default_article_thumbnail.jpg",
  "page_override": {
    "meta_description": "",
    "meta_image": "../../../../../assets/images/meta_image_fallback.jpg",
    "meta_title": "L'équipe s'agrandit gr&acirc;ce à Marco",
    "parent": "news",
    "slug": "news/2007-04-01-lequipe-s-agrandit-gr-acirc-cea-marco",
    "title": "L'équipe s'agrandit gr&acirc;ce à Marco"
  },
  "page_slug": "news/2007-04-01-lequipe-s-agrandit-gr-acirc-cea-marco",
  "publish": true,
  "title": "L'équipe s'agrandit gr&acirc;ce à Marco"
}