{
  "authors": [
    "Christopho"
  ],
  "categories": [
    "Solarus"
  ],
  "creation_date": "2007-04-17",
  "excerpt": "Bonjour à tous. Amorcée par moi-même il y a quelques semaines, fortement aidée par Noxneo depuis peu et soutenue par l'ensemble de l'équipe....",
  "id": "2007-04-17-jeux-amateurs-reforme-du-forum-de-zelda-solarus",
  "image_thumbnail": "../../../../../assets/blog/default_article_thumbnail.jpg",
  "page_override": {
    "meta_description": "",
    "meta_image": "../../../../../assets/images/meta_image_fallback.jpg",
    "meta_title": "[Jeux amateurs] Réforme du forum de Zelda-Solarus",
    "parent": "news",
    "slug": "news/2007-04-17-jeux-amateurs-reforme-du-forum-de-zelda-solarus",
    "title": "[Jeux amateurs] Réforme du forum de Zelda-Solarus"
  },
  "page_slug": "news/2007-04-17-jeux-amateurs-reforme-du-forum-de-zelda-solarus",
  "publish": true,
  "title": "[Jeux amateurs] Réforme du forum de Zelda-Solarus"
}