{
  "authors": [
    "Christopho"
  ],
  "categories": [
    "Solarus"
  ],
  "creation_date": "2008-05-26",
  "excerpt": "Vous avez peut-être constaté que ce week-end et ce matin, le site a connu quelques perturbations : il a été indisponible par moments.....",
  "id": "2008-05-26-serveur-zs-questions-techniques-et-financieres",
  "image_thumbnail": "../../../../../assets/blog/default_article_thumbnail.jpg",
  "page_override": {
    "meta_description": "",
    "meta_image": "../../../../../assets/images/meta_image_fallback.jpg",
    "meta_title": "Serveur ZS : questions techniques et financières",
    "parent": "news",
    "slug": "news/2008-05-26-serveur-zs-questions-techniques-et-financieres",
    "title": "Serveur ZS : questions techniques et financières"
  },
  "page_slug": "news/2008-05-26-serveur-zs-questions-techniques-et-financieres",
  "publish": true,
  "title": "Serveur ZS : questions techniques et financières"
}