{
  "authors": [
    "Christopho"
  ],
  "categories": [
    "Solarus"
  ],
  "creation_date": "2012-05-20",
  "excerpt": "Une nouvelle version de [url=http://www.zelda-solarus.com/jeu-zsdx]Zelda Mystery of Solarus DX[/url] vient de sortir. Il s'agit de la version....",
  "id": "2012-05-20-zelda-solarus-dx-en-espagnol",
  "image_thumbnail": "../../../../../assets/blog/default_article_thumbnail.jpg",
  "page_override": {
    "meta_description": "",
    "meta_image": "../../../../../assets/images/meta_image_fallback.jpg",
    "meta_title": "Zelda Solarus DX en espagnol",
    "parent": "news",
    "slug": "news/2012-05-20-zelda-solarus-dx-en-espagnol",
    "title": "Zelda Solarus DX en espagnol"
  },
  "page_slug": "news/2012-05-20-zelda-solarus-dx-en-espagnol",
  "publish": true,
  "title": "Zelda Solarus DX en espagnol"
}