{
  "has_breadcrumb": true,
  "meta_description": "Aperçu du moteur de jeu Solarus.",
  "meta_image": "../../../assets/images/meta_image_fallback.jpg",
  "meta_title": "Aperçu",
  "parent": "solarus",
  "publish": true,
  "slug": "solarus/overview",
  "title": "Aperçu"
}