{
  "authors": [
    "Christopho"
  ],
  "categories": [
    "Solarus"
  ],
  "creation_date": "2002-07-03",
  "excerpt": "Vous l'avez peut-être remarqué, un nouveau lien vient d'apparaùtre dans le menu de gauche. En effet, nous avons mis en place une page qui....",
  "id": "2002-07-03-page-downloads",
  "image_thumbnail": "../../../../../assets/blog/default_article_thumbnail.jpg",
  "page_override": {
    "meta_description": "",
    "meta_image": "../../../../../assets/images/meta_image_fallback.jpg",
    "meta_title": "Page Downloads",
    "parent": "news",
    "slug": "news/2002-07-03-page-downloads",
    "title": "Page Downloads"
  },
  "page_slug": "news/2002-07-03-page-downloads",
  "publish": true,
  "title": "Page Downloads"
}