{
  "authors": [
    "Christopho"
  ],
  "categories": [
    "Solarus"
  ],
  "creation_date": "2013-07-30",
  "excerpt": "Aujourd'hui je ne vais pas vous parler de nos jeux, mais de comment faire les vôtres ! J'ai le plaisir de vous annoncer que je démarre la toute....",
  "id": "2013-07-30-tutoriel-creez-votre-jeu-avec-solarus",
  "image_thumbnail": "../../../../../assets/blog/default_article_thumbnail.jpg",
  "page_override": {
    "meta_description": "",
    "meta_image": "../../../../../assets/images/meta_image_fallback.jpg",
    "meta_title": "Tutoriel : Créez votre jeu avec Solarus !",
    "parent": "news",
    "slug": "news/2013-07-30-tutoriel-creez-votre-jeu-avec-solarus",
    "title": "Tutoriel : Créez votre jeu avec Solarus !"
  },
  "page_slug": "news/2013-07-30-tutoriel-creez-votre-jeu-avec-solarus",
  "publish": true,
  "title": "Tutoriel : Créez votre jeu avec Solarus !"
}