{
  "authors": [
    "Christopho"
  ],
  "categories": [
    "Solarus"
  ],
  "creation_date": "2015-06-21",
  "excerpt": "Vous ne rêvez pas ! Ce n'est même pas le premier avril, pourtant c'est le moment de vous donner quelques nouvelles du projet qu'on vous promet....",
  "id": "2015-06-21-des-nouvelles-de-zelda-mercuris-chest",
  "image_thumbnail": "../../../../../assets/blog/default_article_thumbnail.jpg",
  "page_override": {
    "meta_description": "",
    "meta_image": "../../../../../assets/images/meta_image_fallback.jpg",
    "meta_title": "Des nouvelles de Zelda Mercuris' Chest",
    "parent": "news",
    "slug": "news/2015-06-21-des-nouvelles-de-zelda-mercuris-chest",
    "title": "Des nouvelles de Zelda Mercuris' Chest"
  },
  "page_slug": "news/2015-06-21-des-nouvelles-de-zelda-mercuris-chest",
  "publish": true,
  "title": "Des nouvelles de Zelda Mercuris' Chest"
}