{
  "authors": [
    "Christopho"
  ],
  "categories": [
    "Solarus"
  ],
  "creation_date": "2012-04-02",
  "excerpt": "Hi,\r\n\r\nThe English translation of Zelda Mystery of Solarus DX is almost done! I am currently testing the game in English to make a last check.\r\n\r\nThe....",
  "id": "2012-04-02-new-website-name",
  "image_thumbnail": "../../../../../assets/blog/default_article_thumbnail.jpg",
  "page_override": {
    "meta_description": "",
    "meta_image": "../../../../../assets/images/meta_image_fallback.jpg",
    "meta_title": "New website name",
    "parent": "news",
    "slug": "news/2012-04-02-new-website-name",
    "title": "New website name"
  },
  "page_slug": "news/2012-04-02-new-website-name",
  "publish": true,
  "title": "New website name"
}