{
  "age": "All publics",
  "authors": [
    "Solarus Team"
  ],
  "controls": [
    "keyboard",
    "gamepad"
  ],
  "downloads": [
    {
      "content": "downloads/any.md",
      "file": "https://www.solarus-games.org/downloads/games/zelda-xd2-mercuris-chess/zelda-xd2-mercuris-chess-1.1.1.solarus",
      "label": ".solarus file",
      "platform": "any",
      "version": "1.1.1"
    }
  ],
  "excerpt": "The sequel of the first XD short parodic game. Bigger. Better. Sillier.",
  "extras": [
    {
      "icon": "book",
      "icon_category": "fa",
      "label": "Video walkthrough",
      "target": "_blank",
      "title": "Video walkthrough",
      "type": "link",
      "url": "https://www.youtube.com/watch?v=59rctsH8-6c&list=PLzJ4jb-Y0ufzCmtv8EA0-PpIfKqHDSfG2"
    }
  ],
  "icons": {
    "128x128": "icons/icon_128x128.png",
    "16x16": "icons/icon_16x16.png",
    "32x32": "icons/icon_32x32.png",
    "64x64": "icons/icon_64x64.png"
  },
  "id": "game-the-legend-of-zelda-xd2-mercuris-chess",
  "image_cover": "images/cover.jpg",
  "image_logo": "images/logo.png",
  "image_logo_author": "../../../assets/authors/solarus_team.png",
  "image_thumbnail": "images/thumbnail.png",
  "languages": [
    "English",
    "French",
    "Spanish"
  ],
  "licenses": [
    "GPL v3",
    "CC-BY-SA 4.0",
    "Proprietary (Fair use)"
  ],
  "medias": [
    {
      "id": "M2tAk5hRMHk",
      "thumbnail": "medias/screen_1.png",
      "type": "youtube"
    },
    {
      "image": "medias/screen_2.png",
      "thumbnail": "medias/screen_2.png",
      "type": "image"
    },
    {
      "image": "medias/screen_3.png",
      "thumbnail": "medias/screen_3.png",
      "type": "image"
    },
    {
      "image": "medias/screen_4.png",
      "thumbnail": "medias/screen_4.png",
      "type": "image"
    }
  ],
  "page_override": {
    "meta_description": "The sequel to the first parodic Zelda fangame made with Solarus.",
    "meta_image": "images/thumbnail.png",
    "meta_title": "The Legend of Zelda XD2: Mercuris Chess",
    "slug": "games/the-legend-of-zelda-xd2-mercuris-chess",
    "title": "The Legend of Zelda XD2: Mercuris Chess"
  },
  "page_slug": "games/the-legend-of-zelda-xd2-mercuris-chess",
  "players": 1,
  "publish": true,
  "release_date": "2017-04-01",
  "solarus_version": "1.6.x",
  "source_code": "https://gitlab.com/solarus-games/zelda-xd2-mercuris-chess",
  "states": [
    "Released"
  ],
  "title": "The Legend of Zelda XD2: Mercuris Chess",
  "types": [
    "Action-RPG",
    "Adventure"
  ],
  "version": "1.1.1"
}
