{
  "excerpt": "Les différents types de terrains : traversable, mur, eau peu profonde, eau profonde, trous, etc.",
  "id": "book-chapter-solarus-video-tutorial-basics-grounds",
  "index": 4,
  "origin_tree": "development/tutorials/solarus-video-tutorial",
  "page_override": {
    "meta_description": "Les différents types de terrains : traversable, mur, eau peu profonde, eau profonde, trous, etc.",
    "meta_image": "../../../../book/tutorial/solarus-video-tutorial/images/thumbnail.png",
    "meta_title": "Les terrains",
    "parent": "development/tutorials/solarus-video-tutorial",
    "slug": "development/tutorials/solarus-video-tutorial/grounds",
    "title": "Les terrains"
  },
  "page_slug": "development/tutorials/solarus-video-tutorial/grounds",
  "publish": true,
  "title": "Les terrains"
}
