{
  "authors": [
    "Christopho"
  ],
  "categories": [
    "Solarus"
  ],
  "creation_date": "2002-08-05",
  "excerpt": "Ca faisait longtemps que vous nous la réclamiez, et la voilà ! La soluce complète de Zelda : Mystery of Solarus est enfin en ligne, et elle va....",
  "id": "2002-08-05-enfin-la-soluce",
  "image_thumbnail": "../../../../../assets/blog/default_article_thumbnail.jpg",
  "page_override": {
    "meta_description": "",
    "meta_image": "../../../../../assets/images/meta_image_fallback.jpg",
    "meta_title": "Enfin la soluce !",
    "parent": "news",
    "slug": "news/2002-08-05-enfin-la-soluce",
    "title": "Enfin la soluce !"
  },
  "page_slug": "news/2002-08-05-enfin-la-soluce",
  "publish": true,
  "title": "Enfin la soluce !"
}