{
  "authors": [
    "Olivier Cléro"
  ],
  "categories": [
    "Games"
  ],
  "creation_date": "2020-08-01",
  "excerpt": "La question de la licence du moteur et des quêtes est souvent posée. Voici quelques clarifications.",
  "id": "article-2020-08-01-clarification-about-quest-licensing",
  "image_thumbnail": "images/cover.jpg",
  "page_override": {
    "meta_description": "La question de la licence du moteur et des quêtes est souvent posée. Voici quelques clarifications.",
    "meta_image": "images/cover.jpg",
    "meta_title": "Clarification à propos de la licence du moteur et des quêtes",
    "parent": "news",
    "slug": "news/2020-08-01-clarification-about-quest-licensing",
    "title": "Clarification à propos de la licence du moteur et des quêtes"
  },
  "page_slug": "news/2020-08-01-clarification-about-quest-licensing",
  "publish": true,
  "title": "Clarification à propos de la licence du moteur et des quêtes"
}