{
  "authors": [
    "Christopho"
  ],
  "categories": [
    "Solarus"
  ],
  "creation_date": "2010-08-18",
  "excerpt": "Après plusieurs mois de développement au ralenti pour des raisons personnelles, familiales et professionnelles (oui, tout ça cumulé :P), Zelda....",
  "id": "2010-08-18-reprise-de-zelda-solarus-dx-et-documentation-technique",
  "image_thumbnail": "../../../../../assets/blog/default_article_thumbnail.jpg",
  "page_override": {
    "meta_description": "",
    "meta_image": "../../../../../assets/images/meta_image_fallback.jpg",
    "meta_title": "Reprise de Zelda Solarus DX et documentation technique",
    "parent": "news",
    "slug": "news/2010-08-18-reprise-de-zelda-solarus-dx-et-documentation-technique",
    "title": "Reprise de Zelda Solarus DX et documentation technique"
  },
  "page_slug": "news/2010-08-18-reprise-de-zelda-solarus-dx-et-documentation-technique",
  "publish": true,
  "title": "Reprise de Zelda Solarus DX et documentation technique"
}