{
  "authors": [
    "Christopho"
  ],
  "categories": [
    "Solarus"
  ],
  "creation_date": "2013-04-02",
  "excerpt": "L'annonce extravagante d'hier avec l'attaque de Super Tomate et le site provisoire était bien sûr un poisson d'avril ! Mais il y avait du....",
  "id": "2013-04-02-merci",
  "image_thumbnail": "../../../../../assets/blog/default_article_thumbnail.jpg",
  "page_override": {
    "meta_description": "",
    "meta_image": "../../../../../assets/images/meta_image_fallback.jpg",
    "meta_title": "Merci",
    "parent": "news",
    "slug": "news/2013-04-02-merci",
    "title": "Merci"
  },
  "page_slug": "news/2013-04-02-merci",
  "publish": true,
  "title": "Merci"
}