{
  "has_breadcrumb": true,
  "meta_description": "Development blog for the Solarus game engine project.",
  "meta_image": "../../../assets/images/meta_image_fallback.jpg",
  "meta_title": "News",
  "parent": "home",
  "publish": true,
  "slug": "news",
  "title": "News"
}