{
  "authors": [
    "Christopho"
  ],
  "categories": [
    "Solarus"
  ],
  "creation_date": "2002-04-22",
  "excerpt": "Jour J-3 !\n\nVoici probablement la dernière mise à jour avant le Jour J. Tout est prêt, il ne me reste plus qu'à compiler le jeu et à créer le....",
  "id": "2002-04-22-les-details-de-la-sortie",
  "image_thumbnail": "../../../../../assets/blog/default_article_thumbnail.jpg",
  "page_override": {
    "meta_description": "",
    "meta_image": "../../../../../assets/images/meta_image_fallback.jpg",
    "meta_title": "Les détails de la sortie",
    "parent": "news",
    "slug": "news/2002-04-22-les-details-de-la-sortie",
    "title": "Les détails de la sortie"
  },
  "page_slug": "news/2002-04-22-les-details-de-la-sortie",
  "publish": true,
  "title": "Les détails de la sortie"
}