{
  "excerpt": "Chapitre 11 de la solution de The Legend of Zelda: Mystery of Solarus DX.",
  "id": "book-chapter-the-legend-of-zelda-mystery-of-solarus-dx-walkthrough-11",
  "index": 11,
  "origin_tree": "games/the-legend-of-zelda-mystery-of-solarus-dx/walkthrough",
  "page_override": {
    "meta_description": "Chapitre 11 de la solution de The Legend of Zelda: Mystery of Solarus DX.",
    "meta_image": "../../../assets/images/meta_image_fallback.jpg",
    "meta_title": "Les ténèbres au bout du tunnel",
    "parent": "games/the-legend-of-zelda-mystery-of-solarus-dx/walkthrough",
    "slug": "games/the-legend-of-zelda-mystery-of-solarus-dx/walkthrough/11-darkness-at-the-end-of-the-tunnel",
    "title": "Les ténèbres au bout du tunnel"
  },
  "page_slug": "games/the-legend-of-zelda-mystery-of-solarus-dx/walkthrough/11-darkness-at-the-end-of-the-tunnel",
  "publish": true,
  "title": "Les ténèbres au bout du tunnel"
}
