{
  "excerpt": "Comment permettre au héros de nager en eau profonde, avec un item qui donne la capacité de nage.",
  "id": "book-chapter-solarus-video-tutorial-intermediate-bridge",
  "index": 37,
  "origin_tree": "development/tutorials/solarus-video-tutorial",
  "page_override": {
    "meta_description": "Comment permettre au héros de nager en eau profonde, avec un item qui donne la capacité de nage.",
    "meta_image": "../../../assets/images/meta_image_fallback.jpg",
    "meta_title": "Comment faire un pont",
    "parent": "development/tutorials/solarus-video-tutorial",
    "slug": "development/tutorials/solarus-video-tutorial/bridge",
    "title": "Comment faire un pont"
  },
  "page_slug": "development/tutorials/solarus-video-tutorial/bridge",
  "publish": true,
  "title": "Comment faire un pont"
}
