{
  "age": "Tous publics",
  "authors": [
    "Solarus Team"
  ],
  "controls": [
    "keyboard",
    "gamepad"
  ],
  "downloads": [
    {
      "content": "downloads/any.md",
      "file": "https://www.solarus-games.org/downloads/games/zsxd/zsxd-1.12.2.solarus",
      "label": ".solarus file",
      "platform": "any",
      "version": "1.12.2"
    }
  ],
  "excerpt": "Un court jeu parodique qui se moque des tropes de Zelda, publié en tant que poisson d'avril.",
  "extras": [
    {
      "icon": "book",
      "icon_category": "fa",
      "label": "Solution vidéo",
      "target": "_blank",
      "title": "Solution vidéo",
      "type": "link",
      "url": "https://www.youtube.com/watch?v=SNlWPqK8CSc&list=PL4170BC88D275AFDD"
    }
  ],
  "icons": {
    "128x128": "icons/icon_128x128.png",
    "16x16": "icons/icon_16x16.png",
    "32x32": "icons/icon_32x32.png",
    "64x64": "icons/icon_64x64.png"
  },
  "id": "game-the-legend-of-zelda-mystery-of-solarus-xd",
  "image_cover": "images/cover.jpg",
  "image_logo": "images/logo.png",
  "image_logo_author": "../../../assets/authors/solarus_team.png",
  "image_thumbnail": "images/thumbnail.png",
  "languages": [
    "Anglais",
    "Français",
    "Espagnol"
  ],
  "licenses": [
    "GPL v3",
    "CC-BY-SA 4.0",
    "Propriétaire (usage raisonnable)"
  ],
  "medias": [
    {
      "image": "medias/screen_1.png",
      "thumbnail": "medias/screen_1.png",
      "type": "image"
    },
    {
      "image": "medias/screen_2.png",
      "thumbnail": "medias/screen_2.png",
      "type": "image"
    },
    {
      "image": "medias/screen_3.png",
      "thumbnail": "medias/screen_3.png",
      "type": "image"
    },
    {
      "image": "medias/screen_4.png",
      "thumbnail": "medias/screen_4.png",
      "type": "image"
    }
  ],
  "page_override": {
    "meta_description": "Un jeu Zelda parodique, se moquant des tropes et du lore Zelda.",
    "meta_image": "images/thumbnail.png",
    "meta_title": "The Legend of Zelda: Mystery of Solarus XD",
    "slug": "games/the-legend-of-zelda-mystery-of-solarus-xd",
    "title": "The Legend of Zelda: Mystery of Solarus XD"
  },
  "page_slug": "games/the-legend-of-zelda-mystery-of-solarus-xd",
  "players": 1,
  "publish": true,
  "release_date": "2011-04-01",
  "solarus_version": "1.6.x",
  "source_code": "https://gitlab.com/solarus-games/zsxd",
  "states": [
    "Publié"
  ],
  "title": "The Legend of Zelda: Mystery of Solarus XD",
  "types": [
    "Action-RPG",
    "Aventure"
  ],
  "version": "1.12.2"
}
