{
  "authors": [
    "Renkineko"
  ],
  "categories": [
    "Solarus"
  ],
  "creation_date": "2013-09-16",
  "excerpt": "Bonjour à toutes et à tous ! Depuis le temps que vous le réclamiez, et bien ça y est, l'heure est enfin venue de vous dévoiler l'existence....",
  "id": "2013-09-16-tutoriel-ecrit-creez-votre-jeu-2d-avec-solarus",
  "image_thumbnail": "../../../../../assets/blog/default_article_thumbnail.jpg",
  "page_override": {
    "meta_description": "",
    "meta_image": "../../../../../assets/images/meta_image_fallback.jpg",
    "meta_title": "Tutoriel écrit : Créez votre jeu 2D avec Solarus",
    "parent": "news",
    "slug": "news/2013-09-16-tutoriel-ecrit-creez-votre-jeu-2d-avec-solarus",
    "title": "Tutoriel écrit : Créez votre jeu 2D avec Solarus"
  },
  "page_slug": "news/2013-09-16-tutoriel-ecrit-creez-votre-jeu-2d-avec-solarus",
  "publish": true,
  "title": "Tutoriel écrit : Créez votre jeu 2D avec Solarus"
}