{
  "authors": [
    "Christopho"
  ],
  "categories": [
    "Solarus"
  ],
  "creation_date": "2009-01-24",
  "excerpt": "Voici les dernières nouvelles du développement de Zelda : Mystery of Solarus DX. La programmation a beaucoup avancé ces derniers jours. Grâce à....",
  "id": "2009-01-24-zsdx-systeme-de-combats-et-scripts",
  "image_thumbnail": "../../../../../assets/blog/default_article_thumbnail.jpg",
  "page_override": {
    "meta_description": "",
    "meta_image": "../../../../../assets/images/meta_image_fallback.jpg",
    "meta_title": "ZSDX : système de combats et scripts",
    "parent": "news",
    "slug": "news/2009-01-24-zsdx-systeme-de-combats-et-scripts",
    "title": "ZSDX : système de combats et scripts"
  },
  "page_slug": "news/2009-01-24-zsdx-systeme-de-combats-et-scripts",
  "publish": true,
  "title": "ZSDX : système de combats et scripts"
}