{
  "authors": [
    "Olivier Cléro"
  ],
  "categories": [
    "Solarus"
  ],
  "creation_date": "2017-10-11",
  "excerpt": "As you may have noticed, Solarus recently got some spotlight thanks to several websites. PC Gamer made a interview of Christopho and talked about....",
  "id": "2017-10-11-solarus-press-kit",
  "image_thumbnail": "../../../../../assets/blog/default_article_thumbnail.jpg",
  "page_override": {
    "meta_description": "",
    "meta_image": "../../../../../assets/images/meta_image_fallback.jpg",
    "meta_title": "Solarus Press Kit",
    "parent": "news",
    "slug": "news/2017-10-11-solarus-press-kit",
    "title": "Solarus Press Kit"
  },
  "page_slug": "news/2017-10-11-solarus-press-kit",
  "publish": true,
  "title": "Solarus Press Kit"
}