{
  "content": {
    "is_filter": false,
    "label": "Content",
    "required": true,
    "type": "content"
  },
  "difficulty": {
    "is_filter": true,
    "label": "Difficulty",
    "required": false,
    "type": "integer"
  },
  "excerpt": {
    "is_filter": false,
    "label": "Excerpt",
    "required": true,
    "type": "string"
  },
  "id": {
    "is_filter": false,
    "label": "Id",
    "required": true,
    "type": "string"
  },
  "index": {
    "is_filter": false,
    "label": "Index",
    "required": true,
    "type": "integer"
  },
  "origin_tree": {
    "is_filter": false,
    "label": "Origine de l'arborescence",
    "type": "string"
  },
  "page_override": {
    "is_filter": false,
    "label": "Page override",
    "required": true,
    "type": "object"
  },
  "page_slug": {
    "is_filter": false,
    "label": "Page slug",
    "required": true,
    "type": "url"
  },
  "publish": {
    "is_filter": false,
    "label": "Publish?",
    "required": true,
    "type": "boolean"
  },
  "title": {
    "is_filter": false,
    "label": "Title",
    "required": true,
    "type": "string"
  }
}