{
  "authors": [
    "Olivier Cléro"
  ],
  "categories": [
    "Solarus"
  ],
  "creation_date": "2013-06-04",
  "excerpt": "Une troisième solution vient d'arriver pour Zelda Solarus DX. Cette fois-ci, c'est sous la forme d'un guide au format PDF basé sur la solution....",
  "id": "2013-06-04-guide-officiel-strategique-de-zelda-solarus-dx",
  "image_thumbnail": "../../../../../assets/blog/default_article_thumbnail.jpg",
  "page_override": {
    "meta_description": "",
    "meta_image": "../../../../../assets/images/meta_image_fallback.jpg",
    "meta_title": "Guide Officiel Stratégique de Zelda Solarus DX",
    "parent": "news",
    "slug": "news/2013-06-04-guide-officiel-strategique-de-zelda-solarus-dx",
    "title": "Guide Officiel Stratégique de Zelda Solarus DX"
  },
  "page_slug": "news/2013-06-04-guide-officiel-strategique-de-zelda-solarus-dx",
  "publish": true,
  "title": "Guide Officiel Stratégique de Zelda Solarus DX"
}