{
  "authors": [
    "Christopho"
  ],
  "categories": [
    "Solarus"
  ],
  "creation_date": "2002-01-09",
  "excerpt": "Et oui ! Déjà 1 000 téléchargements de la démo de ZS depuis le début du mois de juillet 2001 ! Nous ne cachons pas que nous sommes heureux de....",
  "id": "2002-01-09-1000-downloads",
  "image_thumbnail": "../../../../../assets/blog/default_article_thumbnail.jpg",
  "page_override": {
    "meta_description": "",
    "meta_image": "../../../../../assets/images/meta_image_fallback.jpg",
    "meta_title": "1000 DOWNLOADS",
    "parent": "news",
    "slug": "news/2002-01-09-1000-downloads",
    "title": "1000 DOWNLOADS"
  },
  "page_slug": "news/2002-01-09-1000-downloads",
  "publish": true,
  "title": "1000 DOWNLOADS"
}