{
  "excerpt": "Install Solarus on your system.",
  "id": "book-chapter-solarus-official-guide-basics-installation",
  "index": 2,
  "origin_tree": "development/tutorials/solarus-official-guide",
  "page_override": {
    "meta_description": "Install Solarus on your system.",
    "meta_image": "../../../../book/tutorial/solarus-official-guide/images/thumbnail.png",
    "meta_title": "Installation",
    "parent": "development/tutorials/solarus-official-guide/basics",
    "slug": "development/tutorials/solarus-official-guide/basics/installation",
    "title": "Installation"
  },
  "page_slug": "development/tutorials/solarus-official-guide/basics/installation",
  "publish": true,
  "title": "Installation"
}
