{
  "authors": [
    "Christopho"
  ],
  "categories": [
    "Solarus"
  ],
  "creation_date": "2015-05-03",
  "excerpt": "UPDATE : un correctif vient d'être publié, il s'agit de la version 1.4.1 1.4.2 qui corrige plusieurs bugs dont des crashs. Il est donc conseillé....",
  "id": "2015-05-03-solarus-1-4-disponible-nouvel-editeur-de-quetes",
  "image_thumbnail": "../../../../../assets/blog/default_article_thumbnail.jpg",
  "page_override": {
    "meta_description": "",
    "meta_image": "../../../../../assets/images/meta_image_fallback.jpg",
    "meta_title": "Solarus 1.4 disponible, nouvel éditeur de quêtes !",
    "parent": "news",
    "slug": "news/2015-05-03-solarus-1-4-disponible-nouvel-editeur-de-quetes",
    "title": "Solarus 1.4 disponible, nouvel éditeur de quêtes !"
  },
  "page_slug": "news/2015-05-03-solarus-1-4-disponible-nouvel-editeur-de-quetes",
  "publish": true,
  "title": "Solarus 1.4 disponible, nouvel éditeur de quêtes !"
}