{
  "authors": [
    "Christopho"
  ],
  "categories": [
    "Solarus"
  ],
  "creation_date": "2005-08-10",
  "excerpt": "Je suis heureux de vous annoncer que comme promis, la démo est maintenant disponible en version anglaise ! La traduction a été....",
  "id": "2005-08-10-zelda-mercuris-chest-la-demo-disponible-en-anglais",
  "image_thumbnail": "../../../../../assets/blog/default_article_thumbnail.jpg",
  "page_override": {
    "meta_description": "",
    "meta_image": "../../../../../assets/images/meta_image_fallback.jpg",
    "meta_title": "Zelda Mercuris' Chest : la démo disponible en anglais",
    "parent": "news",
    "slug": "news/2005-08-10-zelda-mercuris-chest-la-demo-disponible-en-anglais",
    "title": "Zelda Mercuris' Chest : la démo disponible en anglais"
  },
  "page_slug": "news/2005-08-10-zelda-mercuris-chest-la-demo-disponible-en-anglais",
  "publish": true,
  "title": "Zelda Mercuris' Chest : la démo disponible en anglais"
}