{
  "authors": [
    "Christopho"
  ],
  "categories": [
    "Solarus"
  ],
  "creation_date": "2009-12-04",
  "excerpt": "Bonsoir à tous, A deux semaines de la sortie de la démo de Zelda Mystery of Solarus DX, pour vous faire patienter, nous vous proposons dès....",
  "id": "2009-12-04-mode-d-emploi-de-la-demo",
  "image_thumbnail": "../../../../../assets/blog/default_article_thumbnail.jpg",
  "page_override": {
    "meta_description": "",
    "meta_image": "../../../../../assets/images/meta_image_fallback.jpg",
    "meta_title": "Mode d'emploi de la démo",
    "parent": "news",
    "slug": "news/2009-12-04-mode-d-emploi-de-la-demo",
    "title": "Mode d'emploi de la démo"
  },
  "page_slug": "news/2009-12-04-mode-d-emploi-de-la-demo",
  "publish": true,
  "title": "Mode d'emploi de la démo"
}