{
  "authors": [
    "Christopho"
  ],
  "categories": [
    "Solarus"
  ],
  "creation_date": "2002-06-20",
  "excerpt": "Après une longue période d'indisponibilité, le site fonctionne à nouveau ! En effet, nous avons été hackés et le mot de passe de la base de....",
  "id": "2002-06-20-ca-remarche",
  "image_thumbnail": "../../../../../assets/blog/default_article_thumbnail.jpg",
  "page_override": {
    "meta_description": "",
    "meta_image": "../../../../../assets/images/meta_image_fallback.jpg",
    "meta_title": "Ca remarche !",
    "parent": "news",
    "slug": "news/2002-06-20-ca-remarche",
    "title": "Ca remarche !"
  },
  "page_slug": "news/2002-06-20-ca-remarche",
  "publish": true,
  "title": "Ca remarche !"
}