{
  "authors": [
    "Christopho"
  ],
  "categories": [
    "Solarus"
  ],
  "creation_date": "2010-04-01",
  "excerpt": "Lorsque les ténèbres apparaissent, la lame d'un héros émerge toujours. [url=http://www.zelda-solarus.com/revelation-marees]Tel le reflux des....",
  "id": "2010-04-01-revelations",
  "image_thumbnail": "../../../../../assets/blog/default_article_thumbnail.jpg",
  "page_override": {
    "meta_description": "",
    "meta_image": "../../../../../assets/images/meta_image_fallback.jpg",
    "meta_title": "Révélations",
    "parent": "news",
    "slug": "news/2010-04-01-revelations",
    "title": "Révélations"
  },
  "page_slug": "news/2010-04-01-revelations",
  "publish": true,
  "title": "Révélations"
}