{
  "age": "All publics",
  "authors": [
    "Max Mraz"
  ],
  "controls": [
    "keyboard",
    "gamepad"
  ],
  "downloads": [],
  "excerpt": "Navigate a world brimming with lawless pirates, dangerous monsters, and ancient magic.",
  "icons": {
    "128x128": "icons/icon_128.png",
    "16x16": "icons/icon_16.png",
    "32x32": "icons/icon_32.png",
    "64x64": "icons/icon_64.png"
  },
  "id": "game-oceans-heart",
  "image_cover": "images/cover.jpg",
  "image_logo": "images/logo.png",
  "image_logo_author": "../../../assets/authors/max_mraz.png",
  "image_thumbnail": "images/thumbnail.png",
  "languages": [
    "English",
    "French",
    "German",
    "Portuguese",
    "Spanish",
    "Russian", 
    "Chinese"
  ],
  "licenses": [
    "GPL v3",
    "CC-BY-SA 4.0",
    "Proprietary"
  ],
  "medias": [
    {
      "id": "LkvNR1bqp9U",
      "thumbnail": "medias/screen_01.png",
      "type": "youtube"
    },
    {
      "image": "medias/screen_02.png",
      "thumbnail": "medias/screen_02.png",
      "type": "image"
    },
    {
      "image": "medias/screen_03.png",
      "thumbnail": "medias/screen_03.png",
      "type": "image"
    },
    {
      "image": "medias/screen_04.png",
      "thumbnail": "medias/screen_04.png",
      "type": "image"
    },
    {
      "image": "medias/screen_05.png",
      "thumbnail": "medias/screen_05.png",
      "type": "image"
    },
    {
      "image": "medias/screen_06.png",
      "thumbnail": "medias/screen_06.png",
      "type": "image"
    },
    {
      "image": "medias/screen_07.png",
      "thumbnail": "medias/screen_07.png",
      "type": "image"
    },
    {
      "image": "medias/screen_08.png",
      "thumbnail": "medias/screen_08.png",
      "type": "image"
    },
    {
      "image": "medias/screen_09.png",
      "thumbnail": "medias/screen_09.png",
      "type": "image"
    },
    {
      "image": "medias/screen_10.png",
      "thumbnail": "medias/screen_10.png",
      "type": "image"
    },
    {
      "image": "medias/screen_11.png",
      "thumbnail": "medias/screen_11.png",
      "type": "image"
    },
    {
      "image": "medias/screen_12.png",
      "thumbnail": "medias/screen_12.png",
      "type": "image"
    },
    {
      "image": "medias/screen_13.png",
      "thumbnail": "medias/screen_13.png",
      "type": "image"
    },
    {
      "image": "medias/screen_14.png",
      "thumbnail": "medias/screen_14.png",
      "type": "image"
    },
    {
      "image": "medias/screen_15.png",
      "thumbnail": "medias/screen_15.png",
      "type": "image"
    },
    {
      "image": "medias/screen_16.png",
      "thumbnail": "medias/screen_16.png",
      "type": "image"
    }
  ],
  "page_override": {
    "meta_description": "Navigate a world brimming with lawless pirates, dangerous monsters, and ancient magic.",
    "meta_image": "images/thumbnail.png",
    "meta_title": "Ocean's Heart",
    "slug": "games/oceans-heart",
    "title": "Ocean's Heart"
  },
  "page_slug": "games/oceans-heart",
  "players": 1,
  "publish": true,
  "release_date": "",
  "solarus_version": "1.6.x",
  "website": "https://www.nordcurrent.com/games/oceans-heart",
  "states": [
    "In development"
  ],
  "title": "Ocean's Heart",
  "types": [
    "Action-RPG",
    "Adventure"
  ],
  "version": "-"
}