{
  "authors": [
    "Christopho"
  ],
  "categories": [
    "Solarus"
  ],
  "creation_date": "2004-02-20",
  "excerpt": "Zelda MC, ce sont les initiales du titre définitif de notre prochaine création, anciennement connue sous le nom de Zelda : Advanced Project. En ce....",
  "id": "2004-02-20-zelda-mc-quelques-nouvelles",
  "image_thumbnail": "../../../../../assets/blog/default_article_thumbnail.jpg",
  "page_override": {
    "meta_description": "",
    "meta_image": "../../../../../assets/images/meta_image_fallback.jpg",
    "meta_title": "Zelda MC : quelques nouvelles",
    "parent": "news",
    "slug": "news/2004-02-20-zelda-mc-quelques-nouvelles",
    "title": "Zelda MC : quelques nouvelles"
  },
  "page_slug": "news/2004-02-20-zelda-mc-quelques-nouvelles",
  "publish": true,
  "title": "Zelda MC : quelques nouvelles"
}