{
  "authors": [
    "Christopho"
  ],
  "categories": [
    "Solarus"
  ],
  "creation_date": "2008-04-01",
  "excerpt": "Comme certains d'entre vous l'ont soupçonné, toute cette annonce n'était qu'un vaste canular :D Afin de clarifier la situation, je vais résumer....",
  "id": "2008-04-01-poisson-d-avril",
  "image_thumbnail": "../../../../../assets/blog/default_article_thumbnail.jpg",
  "page_override": {
    "meta_description": "",
    "meta_image": "../../../../../assets/images/meta_image_fallback.jpg",
    "meta_title": "Poisson d'avril !!!",
    "parent": "news",
    "slug": "news/2008-04-01-poisson-d-avril",
    "title": "Poisson d'avril !!!"
  },
  "page_slug": "news/2008-04-01-poisson-d-avril",
  "publish": true,
  "title": "Poisson d'avril !!!"
}