{
  "authors": [
    "Christopho"
  ],
  "categories": [
    "Solarus"
  ],
  "creation_date": "2008-04-14",
  "excerpt": "Voici une petite news pour vous expliquer l'avancement de la programmation du jeu : ce qui a déjà été fait et ce sur quoi je travaille....",
  "id": "2008-04-14-zsdx-ou-en-est-la-programmation",
  "image_thumbnail": "../../../../../assets/blog/default_article_thumbnail.jpg",
  "page_override": {
    "meta_description": "",
    "meta_image": "../../../../../assets/images/meta_image_fallback.jpg",
    "meta_title": "ZSDX : où en est la programmation ?",
    "parent": "news",
    "slug": "news/2008-04-14-zsdx-ou-en-est-la-programmation",
    "title": "ZSDX : où en est la programmation ?"
  },
  "page_slug": "news/2008-04-14-zsdx-ou-en-est-la-programmation",
  "publish": true,
  "title": "ZSDX : où en est la programmation ?"
}