{
  "general": {
    "count": -1,
    "entities": {
      "page": {
        "criteria": {
          "title" : {
            "comparison": "like",
            "weight": 3
          },
          "excerpt" : {
            "comparison": "like",
            "weight": 1
          }
        },
        "output": {
          "title": "title",
          "excerpt": "excerpt",
          "image_thumbnail": false
        }
      },
      "game": {
        "criteria": {
          "title" : {
            "comparison": "like",
            "weight": 3
          },
          "excerpt" : {
            "comparison": "like",
            "weight": 1
          }
        },
        "output": {
          "title": "title",
          "excerpt": "excerpt",
          "image_thumbnail": "image_thumbnail"
        }
      },
      "article": {
        "criteria": {
          "title" : {
            "comparison": "like",
            "weight": 3
          },
          "excerpt" : {
            "comparison": "like",
            "weight": 1
          }
        },
        "output": {
          "title": "title",
          "excerpt": "excerpt",
          "image_thumbnail": "image_thumbnail"
        }
      },
      "resource-pack": {
        "criteria": {
          "title" : {
            "comparison": "like",
            "weight": 3
          },
          "excerpt" : {
            "comparison": "like",
            "weight": 1
          }
        },
        "output": {
          "title": "title",
          "excerpt": "excerpt",
          "image_thumbnail": "image_thumbnail"
        }
      },
      "book-chapter": {
        "criteria": {
          "title" : {
            "comparison": "like",
            "weight": 3
          },
          "excerpt" : {
            "comparison": "like",
            "weight": 1
          }
        },
        "output": {
          "title": "title",
          "excerpt": "excerpt",
          "image_thumbnail": false
        }
      }
    },
    "form-action": "search",
    "form-placeholder": "Rechercher",
    "form-button-text": "Ok"
  }
}