{
  "authors": [
    "Christopho"
  ],
  "categories": [
    "Solarus"
  ],
  "creation_date": "2017-01-23",
  "excerpt": "La capture d'écran de Zelda Mercuris Chest du jour est un temple majestueux dans lequel Link va devoir rechercher quelque chose de....",
  "id": "2017-01-23-un-temple-mysterieux",
  "image_thumbnail": "../../../../../assets/blog/default_article_thumbnail.jpg",
  "page_override": {
    "meta_description": "",
    "meta_image": "../../../../../assets/images/meta_image_fallback.jpg",
    "meta_title": "Un temple mystérieux",
    "parent": "news",
    "slug": "news/2017-01-23-un-temple-mysterieux",
    "title": "Un temple mystérieux"
  },
  "page_slug": "news/2017-01-23-un-temple-mysterieux",
  "publish": true,
  "title": "Un temple mystérieux"
}