{
  "authors": [
    "Christopho"
  ],
  "categories": [
    "Solarus"
  ],
  "creation_date": "2013-05-03",
  "excerpt": " La toute nouvelle génération de notre moteur de jeu Solarus vient de naùtre ! Merci à Neovyse pour le logo :) Comme évoqué dans des....",
  "id": "2013-05-03-solarus-1-0-0-disponible",
  "image_thumbnail": "../../../../../assets/blog/default_article_thumbnail.jpg",
  "page_override": {
    "meta_description": "",
    "meta_image": "../../../../../assets/images/meta_image_fallback.jpg",
    "meta_title": "Solarus 1.0.0 disponible",
    "parent": "news",
    "slug": "news/2013-05-03-solarus-1-0-0-disponible",
    "title": "Solarus 1.0.0 disponible"
  },
  "page_slug": "news/2013-05-03-solarus-1-0-0-disponible",
  "publish": true,
  "title": "Solarus 1.0.0 disponible"
}