{
  "authors": [
    "Christopho"
  ],
  "categories": [
    "Solarus"
  ],
  "creation_date": "2017-05-09",
  "excerpt": "Le monde de Mercuri's Chest est vaste, on vous l'avait annoncé. Aujourd'hui, Newlink vous présente cette toute capture d'écran toute fraùche du....",
  "id": "2017-05-09-le-village-enneige",
  "image_thumbnail": "../../../../../assets/blog/default_article_thumbnail.jpg",
  "page_override": {
    "meta_description": "",
    "meta_image": "../../../../../assets/images/meta_image_fallback.jpg",
    "meta_title": "Le village enneigé",
    "parent": "news",
    "slug": "news/2017-05-09-le-village-enneige",
    "title": "Le village enneigé"
  },
  "page_slug": "news/2017-05-09-le-village-enneige",
  "publish": true,
  "title": "Le village enneigé"
}