{
  "authors": [
    "Christopho"
  ],
  "categories": [
    "Solarus"
  ],
  "creation_date": "2005-03-31",
  "excerpt": " Nous gardions secret depuis de longs mois le titre de notre prochaine création... Et aujourd'hui nous vous le dévoilons  officiellement :....",
  "id": "2005-03-31-zelda-mercuris-chest",
  "image_thumbnail": "../../../../../assets/blog/default_article_thumbnail.jpg",
  "page_override": {
    "meta_description": "",
    "meta_image": "../../../../../assets/images/meta_image_fallback.jpg",
    "meta_title": "Zelda : Mercuris' Chest",
    "parent": "news",
    "slug": "news/2005-03-31-zelda-mercuris-chest",
    "title": "Zelda : Mercuris' Chest"
  },
  "page_slug": "news/2005-03-31-zelda-mercuris-chest",
  "publish": true,
  "title": "Zelda : Mercuris' Chest"
}