{
  "excerpt": "Comment créer des blocs qui peuvent être poussés et/ou tirés par le héros.",
  "id": "book-chapter-solarus-video-tutorial-basics-blocks",
  "index": 27,
  "origin_tree": "development/tutorials/solarus-video-tutorial",
  "page_override": {
    "meta_description": "Comment créer des blocs qui peuvent être poussés et/ou tirés par le héros.",
    "meta_image": "../../../../book/tutorial/solarus-video-tutorial/images/thumbnail.png",
    "meta_title": "Les blocs",
    "parent": "development/tutorials/solarus-video-tutorial",
    "slug": "development/tutorials/solarus-video-tutorial/blocks",
    "title": "Les blocs"
  },
  "page_slug": "development/tutorials/solarus-video-tutorial/blocks",
  "publish": true,
  "title": "Les blocs"
}
