{
  "excerpt": "Choose a license for your Solarus quest.",
  "id": "book-chapter-solarus-official-guide-basics-choosing-a-license",
  "index": 5,
  "origin_tree": "development/tutorials/solarus-official-guide",
  "page_override": {
    "meta_description": "Choose a license for your Solarus quest.",
    "meta_image": "../../../../book/tutorial/solarus-official-guide/images/thumbnail.png",
    "meta_title": "Choosing a license",
    "parent": "development/tutorials/solarus-official-guide/basics",
    "slug": "development/tutorials/solarus-official-guide/basics/choosing-a-license",
    "title": "Choosing a license"
  },
  "page_slug": "development/tutorials/solarus-official-guide/basics/choosing-a-license",
  "publish": true,
  "title": "Choosing a license"
}
