{
  "authors": [
    "Christopho"
  ],
  "categories": [
    "Solarus"
  ],
  "creation_date": "2002-10-22",
  "excerpt": "Salut à tous !\n\nAprès deux jours de panique, tout est rétabli (du moins provisoirement) ! DaN, un membre de l'équipe de développement de Zelda....",
  "id": "2002-10-22-nous-revoila",
  "image_thumbnail": "../../../../../assets/blog/default_article_thumbnail.jpg",
  "page_override": {
    "meta_description": "",
    "meta_image": "../../../../../assets/images/meta_image_fallback.jpg",
    "meta_title": "Nous revoilà !",
    "parent": "news",
    "slug": "news/2002-10-22-nous-revoila",
    "title": "Nous revoilà !"
  },
  "page_slug": "news/2002-10-22-nous-revoila",
  "publish": true,
  "title": "Nous revoilà !"
}