{
  "authors": [
    "Christopho"
  ],
  "categories": [
    "Solarus"
  ],
  "creation_date": "2002-10-05",
  "excerpt": "Salut à tous !\nN'oubliez surtout pas de venir sur le chat ce soir. L'équipe de développement sera au complet pour répondre à toutes les....",
  "id": "2002-10-05-dernier-rappel-grand-chat-special-zs-2",
  "image_thumbnail": "../../../../../assets/blog/default_article_thumbnail.jpg",
  "page_override": {
    "meta_description": "",
    "meta_image": "../../../../../assets/images/meta_image_fallback.jpg",
    "meta_title": "Dernier rappel : grand chat spécial ZS 2",
    "parent": "news",
    "slug": "news/2002-10-05-dernier-rappel-grand-chat-special-zs-2",
    "title": "Dernier rappel : grand chat spécial ZS 2"
  },
  "page_slug": "news/2002-10-05-dernier-rappel-grand-chat-special-zs-2",
  "publish": true,
  "title": "Dernier rappel : grand chat spécial ZS 2"
}