{
  "authors": [
    "Christopho"
  ],
  "categories": [
    "Solarus"
  ],
  "creation_date": "2003-02-11",
  "excerpt": "Depuis que nous avons supprimé la soluce du site, on reçoit plein d'e-mails de personnes bloquées dans Zelda : Mystery of Solarus. C'était....",
  "id": "2003-02-11-vous-etes-bloque-dans-zelda-solarus",
  "image_thumbnail": "../../../../../assets/blog/default_article_thumbnail.jpg",
  "page_override": {
    "meta_description": "",
    "meta_image": "../../../../../assets/images/meta_image_fallback.jpg",
    "meta_title": "Vous êtes bloqué dans Zelda Solarus ?",
    "parent": "news",
    "slug": "news/2003-02-11-vous-etes-bloque-dans-zelda-solarus",
    "title": "Vous êtes bloqué dans Zelda Solarus ?"
  },
  "page_slug": "news/2003-02-11-vous-etes-bloque-dans-zelda-solarus",
  "publish": true,
  "title": "Vous êtes bloqué dans Zelda Solarus ?"
}