{
  "authors": [
    "Christopho"
  ],
  "categories": [
    "Solarus"
  ],
  "creation_date": "2007-01-01",
  "excerpt": "Une bonne année et une bonne santé pour tous !",
  "id": "2007-01-01-et-une-bonne-annee",
  "image_thumbnail": "../../../../../assets/blog/default_article_thumbnail.jpg",
  "page_override": {
    "meta_description": "",
    "meta_image": "../../../../../assets/images/meta_image_fallback.jpg",
    "meta_title": "Et une bonne année !",
    "parent": "news",
    "slug": "news/2007-01-01-et-une-bonne-annee",
    "title": "Et une bonne année !"
  },
  "page_slug": "news/2007-01-01-et-une-bonne-annee",
  "publish": true,
  "title": "Et une bonne année !"
}