{
  "authors": [
    "Christopho"
  ],
  "categories": [
    "Solarus"
  ],
  "creation_date": "2007-01-20",
  "excerpt": "Le chan IRC #ZS à ouvert sur Epik Network ! Pour ceux qui ne le savent pas encore, un chan IRC est un salon de discussion instantané auquel....",
  "id": "2007-01-20-ouverture-du-chan-irc-officiel-de-zelda-solarus",
  "image_thumbnail": "../../../../../assets/blog/default_article_thumbnail.jpg",
  "page_override": {
    "meta_description": "",
    "meta_image": "../../../../../assets/images/meta_image_fallback.jpg",
    "meta_title": "Ouverture du chan IRC officiel de Zelda Solarus",
    "parent": "news",
    "slug": "news/2007-01-20-ouverture-du-chan-irc-officiel-de-zelda-solarus",
    "title": "Ouverture du chan IRC officiel de Zelda Solarus"
  },
  "page_slug": "news/2007-01-20-ouverture-du-chan-irc-officiel-de-zelda-solarus",
  "publish": true,
  "title": "Ouverture du chan IRC officiel de Zelda Solarus"
}