{
  "authors": [
    "Christopho"
  ],
  "categories": [
    "Solarus"
  ],
  "creation_date": "2009-02-25",
  "excerpt": "Bonjour à tous, Depuis quelques semaines, des petits changements s'opèrent sur Zelda Solarus. Voici donc un petit point sur ces modifications....",
  "id": "2009-02-25-quelques-modifications-visibles-et-invisibles",
  "image_thumbnail": "../../../../../assets/blog/default_article_thumbnail.jpg",
  "page_override": {
    "meta_description": "",
    "meta_image": "../../../../../assets/images/meta_image_fallback.jpg",
    "meta_title": "Quelques modifications visibles et invisibles",
    "parent": "news",
    "slug": "news/2009-02-25-quelques-modifications-visibles-et-invisibles",
    "title": "Quelques modifications visibles et invisibles"
  },
  "page_slug": "news/2009-02-25-quelques-modifications-visibles-et-invisibles",
  "publish": true,
  "title": "Quelques modifications visibles et invisibles"
}