{
  "authors": [
    "Christopho"
  ],
  "categories": [
    "Solarus"
  ],
  "creation_date": "2001-12-15",
  "excerpt": "Salut à tous !\n\nLe niveau 7 est en pleine construction. Ce sera un grand palais sur 3 étages, avec pas mal d'énigmes novatrices par rapport aux....",
  "id": "2001-12-15-ca-avance",
  "image_thumbnail": "../../../../../assets/blog/default_article_thumbnail.jpg",
  "page_override": {
    "meta_description": "",
    "meta_image": "../../../../../assets/images/meta_image_fallback.jpg",
    "meta_title": "Ca avance...",
    "parent": "news",
    "slug": "news/2001-12-15-ca-avance",
    "title": "Ca avance..."
  },
  "page_slug": "news/2001-12-15-ca-avance",
  "publish": true,
  "title": "Ca avance..."
}