{
  "authors": [
    "Christopho"
  ],
  "categories": [
    "Solarus"
  ],
  "creation_date": "2001-12-29",
  "excerpt": "On vient de nous signaler qu'il y avait un gros  bug sur la page de téléchargements. En effet, lorsque vous vouliez télécharger la démo, les RTP....",
  "id": "2001-12-29-correction-d-un-bug",
  "image_thumbnail": "../../../../../assets/blog/default_article_thumbnail.jpg",
  "page_override": {
    "meta_description": "",
    "meta_image": "../../../../../assets/images/meta_image_fallback.jpg",
    "meta_title": "Correction d'un bug",
    "parent": "news",
    "slug": "news/2001-12-29-correction-d-un-bug",
    "title": "Correction d'un bug"
  },
  "page_slug": "news/2001-12-29-correction-d-un-bug",
  "publish": true,
  "title": "Correction d'un bug"
}