{
  "categories": {
    "default_value": "-",
    "is_filter": true,
    "label": "Category",
    "required": true,
    "type": "category"
  },
  "content": {
    "is_filter": false,
    "label": "Content",
    "required": true,
    "type": "content"
  },
  "excerpt": {
    "is_filter": false,
    "label": "Excerpt",
    "required": true,
    "type": "string"
  },
  "id": {
    "is_filter": false,
    "label": "Id",
    "required": true,
    "type": "string"
  },
  "image_thumbnail": {
    "is_filter": false,
    "label": "Image thumbnail",
    "required": true,
    "type": "image"
  },
  "index": {
    "is_filter": false,
    "label": "Index",
    "required": true,
    "type": "integer"
  },
  "page_override": {
    "is_filter": false,
    "label": "Page override",
    "required": true,
    "type": "object"
  },
  "page_slug": {
    "is_filter": false,
    "label": "Page slug",
    "required": true,
    "type": "url"
  },
  "publish": {
    "is_filter": false,
    "label": "Publish?",
    "required": true,
    "type": "boolean"
  },
  "section": {
    "is_filter": false,
    "label": "Section",
    "required": true,
    "type": "string"
  },
  "title": {
    "is_filter": false,
    "label": "Title",
    "required": true,
    "type": "string"
  }
}