{
  "authors": [
    "Olivier Cléro"
  ],
  "categories": [
    "Solarus"
  ],
  "creation_date": "2020-04-12",
  "excerpt": "A series of important bugfixes, along with a brand new free tileset.",
  "id": "2020-04-12-solarus-1-6-4-bugfix-release",
  "image_thumbnail": "images/cover.jpg",
  "page_override": {
    "meta_description": "A series of important bugfixes, along with a brand new free tileset.",
    "meta_image": "images/cover.jpg",
    "meta_title": "Bugfix release 1.6.4 for Solarus",
    "parent": "news",
    "slug": "news/2020-04-12-solarus-1-6-4-bugfix-release",
    "title": "Bugfix release 1.6.4 for Solarus"
  },
  "page_slug": "news/2020-04-12-solarus-1-6-4-bugfix-release",
  "publish": true,
  "title": "Bugfix release 1.6.4 for Solarus"
}