{
  "authors": [
    "Christopho"
  ],
  "categories": [
    "Solarus"
  ],
  "creation_date": "2017-04-01",
  "excerpt": "Salut à toutes et à tous !  L'incroyable s'est produit ! Aujourd'hui, nous sommes en mesure de vous proposer, et ce bien avant la date....",
  "id": "2017-04-01-zelda-mercuris-chess-est-sorti",
  "image_thumbnail": "../../../../../assets/blog/default_article_thumbnail.jpg",
  "page_override": {
    "meta_description": "",
    "meta_image": "../../../../../assets/images/meta_image_fallback.jpg",
    "meta_title": "Zelda Mercuris Chess est sorti",
    "parent": "news",
    "slug": "news/2017-04-01-zelda-mercuris-chess-est-sorti",
    "title": "Zelda Mercuris Chess est sorti"
  },
  "page_slug": "news/2017-04-01-zelda-mercuris-chess-est-sorti",
  "publish": true,
  "title": "Zelda Mercuris Chess est sorti"
}