{
  "authors": [
    "Christopho"
  ],
  "categories": [
    "Solarus"
  ],
  "creation_date": "2014-08-03",
  "excerpt": "\r\n\r\nA bugfix release named Solarus 1.2.1 is available!\r\n\r\nIt addresses a few issues with recent features that were not working correctly, like custom....",
  "id": "2014-08-03-bugfix-release-1-2-1",
  "image_thumbnail": "../../../../../assets/blog/default_article_thumbnail.jpg",
  "page_override": {
    "meta_description": "",
    "meta_image": "../../../../../assets/images/meta_image_fallback.jpg",
    "meta_title": "Bugfix release 1.2.1",
    "parent": "news",
    "slug": "news/2014-08-03-bugfix-release-1-2-1",
    "title": "Bugfix release 1.2.1"
  },
  "page_slug": "news/2014-08-03-bugfix-release-1-2-1",
  "publish": true,
  "title": "Bugfix release 1.2.1"
}