{
  "authors": [
    "Christopho"
  ],
  "categories": [
    "Solarus"
  ],
  "creation_date": "2002-03-24",
  "excerpt": "COOL NON ?\nPlus qu'un mois jour pour jour avant la sortie de ZS ! Mon boulot est quasiment fini, il me reste deux trois bricoles que j'aurais fini à....",
  "id": "2002-03-24-plus-qu-un-mois",
  "image_thumbnail": "../../../../../assets/blog/default_article_thumbnail.jpg",
  "page_override": {
    "meta_description": "",
    "meta_image": "../../../../../assets/images/meta_image_fallback.jpg",
    "meta_title": "PLUS QU'UN MOIS !!!",
    "parent": "news",
    "slug": "news/2002-03-24-plus-qu-un-mois",
    "title": "PLUS QU'UN MOIS !!!"
  },
  "page_slug": "news/2002-03-24-plus-qu-un-mois",
  "publish": true,
  "title": "PLUS QU'UN MOIS !!!"
}