{
  "authors": [
    "Christopho"
  ],
  "categories": [
    "Solarus"
  ],
  "creation_date": "2002-03-30",
  "excerpt": "Nous nous sommes récemment inscrit au TOP 50 de Puissance zelda. On compte sur vous pour nous encourager en cliquant régulièrement sur le bouton....",
  "id": "2002-03-30-top50-pzelda",
  "image_thumbnail": "../../../../../assets/blog/default_article_thumbnail.jpg",
  "page_override": {
    "meta_description": "",
    "meta_image": "../../../../../assets/images/meta_image_fallback.jpg",
    "meta_title": "TOP50 PZELDA",
    "parent": "news",
    "slug": "news/2002-03-30-top50-pzelda",
    "title": "TOP50 PZELDA"
  },
  "page_slug": "news/2002-03-30-top50-pzelda",
  "publish": true,
  "title": "TOP50 PZELDA"
}