{
  "authors": [
    "Christopho"
  ],
  "categories": [
    "Solarus"
  ],
  "creation_date": "2013-07-24",
  "excerpt": "This is a very important new feature of Solarus 1.1. The dialog box system is now fully scriptable using the Lua API! It means that you can now make....",
  "id": "2013-07-24-customizable-dialogs",
  "image_thumbnail": "../../../../../assets/blog/default_article_thumbnail.jpg",
  "page_override": {
    "meta_description": "",
    "meta_image": "../../../../../assets/images/meta_image_fallback.jpg",
    "meta_title": "Customizable dialogs!",
    "parent": "news",
    "slug": "news/2013-07-24-customizable-dialogs",
    "title": "Customizable dialogs!"
  },
  "page_slug": "news/2013-07-24-customizable-dialogs",
  "publish": true,
  "title": "Customizable dialogs!"
}